{
  "Admin": "Admin",
  "UK": "UK",
  "Users": "Users",
  "Results": "Results",
  "Pages": "Pages",
  "Blog_Posts": "Blog Posts",
  "Events": "Events",
  "Challenges": "Challenges",
  "Advertisements": "Advertisements",
  "Email_Templates": "Email Templates",
  "Logout": "Logout",
  "Action": "Action",
  "ID": "ID",
  "Username": "Username",
  "Title": "Title",
  "Edit": "Edit",
  "Delete": "Delete",
  "English": "English",
  "Welsh": "Welsh",
  "Login": "Login",
  "Email_Address": "Email Address",
  "Password": "Password",
  "Log_In": "Log In",
  "France": "France",
  "Category": "Category",
  "Success": "Success!",
  "Saved": "Saved:",
  "Deleted": "Deleted:",
  "Add": "Add",
  "Save": "Save",
  "Cancel": "Cancel",
  "Oops": "Oops!",
  "Invalid_Username_Or_Password": "Invalid email or password.",
  "Name": "Name",
  "Editing_Challenge": "Editing Challenge #",
  "Body_Copy": "Body Copy",
  "Submission_Message": "Submission Message",
  "New": "New",
  "New_Challenge": "New Challenge",
  "Submission_Message_Placeholder": "e.g. \"Please enter the numer of press ups that you are able to complete in 60 seconds.\"",
  "Type": "Type",
  "Shortest_time_taken": "Shortest time taken",
  "Longest_time_taken": "Longest time taken",
  "How_Many": "How many",
  "How_Many_Within_Set_Time": "How many within a set time",
  "Distance_Covered": "Distance covered",
  "Distance_Covered_Within_Set_Time": "Distance covered within a set time",
  "Select": "Select",
  "Form_Has_Errors": "There are some errors in the form:",
  "Error_Field_Blank": "Field cannot be blank.",
  "Strength": "Strength",
  "Cardio": "Cardio",
  "Ultimate": "Ultimate",
  "Groups": "Groups",
  "Groups_Placeholder": "e.g. \"60s\" or \"10kg, 20kg, 30kg, 40kg, 50kg\"",
  "Markdown_Tip": "Useful notes:<ul><li>Use <a href=\"http://markdowntutorial.com/\">Markdown</a> in this field.</li><li>Links to youTube videos will be automatically embedded.</li><li>Use <strong>[Click here!](gymfit-feature:scrollToSidebar)</strong> to insert a link that when clicked will scroll to the sidebar.</li></ul>",
  "Markdown_Placeholder": "e.g.\nCheck out this insane workout https://www.youtube.com/watch?v=naRaVsFn_g4.",
  "No_Data": "There is nothing to show.",
  "Error_Could_Not_Find_Groups": "Some groups could not be found:",
  "Options_Available": "Options available:",
  "Error_Challenge_Name_Not_Unique": "A challenge with this name already exists. The challenge name must be unique.",
  "Error_Page_Name_Not_Unique": "A page with this name already exists. The page name must be unique.",
  "Error_Exception": "An error occured. Please try again.",
  "Error_Field_Not_Url_Friendly": "Field can only contain alphanumeric characters, dashes and spaces.",
  "Error_Field_Over_100_Characters": "Field cannot be more than 100 characters.",
  "Toggle_Navigation": "Toggle navigation",
  "Areas": "Areas",
  "Editing_Advertisement": "Editing Advertisement #",
  "Link": "Link",
  "Link_Placeholder": "e.g. http://domain.com",
  "New_Advertisement": "New Advertisement",
  "Error_Field_Not_Valid_Hyperlink": "Field is not a valid hyperlink.",
  "Small_Horizontal_Image": "Small Horizontal Image",
  "Large_Vertical_Image": "Large Vertical Image",
  "Small_Horizontal_Image_Upload_Instructions": "Image must be of type PNG and have a width of 375px and height of 50px.",
  "Large_Vertical_Image_Upload_Instructions": "Image must be of type PNG and have a width of 150px and height of 500px.",
  "Error_Field_Not_PNG_File": "File is not an image of type PNG.",
  "Editing_Page": "Editing Page #",
  "New_Page": "New Page",
  "Country": "Country",
  "Error_Field_Image_Not_Correct_Resolution": "Image is not the correct resolution of ",
  "New_Blog_Post": "New Blog Post",
  "Editing_Blog_Post": "Editing Blog Post #",
  "Notifications": "Notifications",
  "Description": "Description",
  "New_Notification": "New Notification",
  "Editing_Notification": "Editing Notification #",
  "User_Dismissable": "User Dismissable",
  "User_Dismissable_Description": "Can the user close this notification?",
  "Registered": "Registered",
  "Last_Logged_In": "Last Login",
  "Never_Logged_In": "Never logged in",
  "Regions": "Regions",
  "Editing_Region": "Editing Region #",
  "Counties": "Counties",
  "Districts": "Districts",
  "Editing_County": "Editing County #",
  "Editing_District": "Editing District #",
  "New_Region": "New Region",
  "New_County": "New County",
  "New_District": "New District",
  "Created": "Created",
  "Configuration": "Configuration",
  "Leaderboard": "Leaderboard",
  "Update_Frequency": "Update Frequency",
  "Monday": "Monday",
  "Tuesday": "Tuesday",
  "Wednesday": "Wednesday",
  "Thursday": "Thursday",
  "Friday": "Friday",
  "Saturday": "Saturday",
  "Sunday": "Sunday",
  "Every": "Every",
  "Error_Field_Nothing_Selected": "Please select an option.",
  "Dashboard": "Dashboard",
  "Page_pages/dashboard/home": "Dashboard",
  "Page_pages/user/list": "Users",
  "Page_pages/user/block": "Block User",
  "Page_pages/user/delete": "Delete User",
  "Page_pages/user/feature": "Feature User",
  "Page_pages/page/list": "Pages",
  "Page_pages/page/edit": "Edit Page",
  "Page_pages/page/new": "New Page",
  "Page_pages/page/delete": "Delete Page",
  "Page_pages/notification/list": "Notifications",
  "Page_pages/notification/edit": "Edit Notification",
  "Page_pages/notification/new": "New Notificiation",
  "Page_pages/configuration/edit": "Configuration",
  "Page_pages/advertisement/list": "Advertisements",
  "Page_pages/advertisement/edit": "Edit Advertisement",
  "Page_pages/advertisement/new": "New Advertisement",
  "Page_pages/blog/list": "Blog Posts",
  "Page_pages/blog/edit": "Edit Blog Post",
  "Page_pages/blog/new": "New Blog Post",
  "Page_pages/blog/delete": "Delete Blog Post",
  "Page_pages/challenge/list": "Challenges",
  "Page_pages/challenge/edit": "Edit Challenge",
  "Page_pages/challenge/new": "New Challenge",
  "Page_pages/challenge/delete": "Delete Challenge",
  "Page_pages/area/list-regions": "Regions",
  "Page_pages/area/edit-region": "Edit Region",
  "Page_pages/area/new-region": "New Region",
  "Page_pages/area/edit-county": "Edit County",
  "Page_pages/area/new-county": "New County",
  "Page_pages/area/edit-district": "Edit District",
  "Page_pages/area/new-district": "New District",
  "Page_pages/email-template/edit": "Email Templates",
  "Page_pages/email/list": "Emails",
  "Page_pages/email/new": "New Email",
  "Page_pages/email/edit": "Edit Email",
  "Page_pages/result/list": "Results",
  "Page_pages/result/reject": "Reject Result",
  "Page_pages/help/list": "Help",
  "Page_pages/admin-user/list": "Admin Users",
  "Page_pages/admin-user/delete": "Delete Admin User",
  "Page_pages/admin-user/new": "New Admin User",
  "Page_pages/social-update/list": "Social Updates",
  "Page_pages/social-update/reject": "Reject Social Update",
  "Page_pages/social-update/view": "Social Update",
  "Help": "Help",
  "User": "User",
  "How_many": "How many",
  "How_many_within_a_set_time": "How many within a set time",
  "Time_taken": "Time taken",
  "How_many_clients": "How many clients",
  "Distance_covered": "Distance covered",
  "Distance_covered_within_a_set_time": "Distance covered within a set time",
  "Multi": "Multi",
  "Personal_Trainer": "Personal Trainer",
  "Special": "Special",
  "Home_Page": "Home Page",
  "Custom_HTML_Block": "Custom HTML Block",
  "Standard_Template": "Standard HTML Template",
  "Email_Template_Help": "<ul><li>{{SUBJECT}} - Email subject</li><li>{{BODY}} - Email body</li><li>{{FOOTER_TEXT}} - Footer text (e.g. unsubscribe link)</li></ul>",
  "Email_Confirmation_Subject": "Email confirmation subject",
  "Email_Confirmation_Html_Body": "Email confirmation body (HTML)",
  "Email_Confirmation_Html_Body_Help": "Use {{EMAIL_CONFIRMATION_LINK}} for the email confirmation link.",
  "Email_Confirmation_Plain_Body": "Email confirmation body (plaintext)",
  "Email_Confirmation_Plain_Body_Help": "Use {{EMAIL_CONFIRMATION_LINK}} for the email confirmation link.",
  "Password_Reset_Subject": "Password reset subject",
  "Password_Reset_Html_Body": "Password reset body (HTML)",
  "Password_Reset_Html_Body_Help": "Use {{PASSWORD_RESET_LINK}} for the password reset link.",
  "Password_Reset_Plain_Body": "Password reset body (plaintext)",
  "Password_Reset_Plain_Body_Help": "Use {{PASSWORD_RESET_LINK}} for the password reset link.",
  "Result": "Result",
  "Evidence": "Evidence",
  "Image": "Image",
  "Video": "Video",
  "Approve": "Approve",
  "Approved_Result": "Approved result:",
  "Approved_Social_Update": "Approved social update:",
  "Social_Update_Image_Deleted": "Social update image deleted:",
  "Social_Update_Video_Deleted": "Social update video deleted:",
  "Rejected_Social_Update": "Rejected social update:",
  "Reject": "Reject",
  "Reason": "Reason",
  "Rejected_Result": "Rejected result:",
  "Ratio_Percent": "Flag Ratio (%)",
  "Likes": "Likes",
  "Flags": "Flags",
  "Challenge": "Challenge",
  "Group": "Group",
  "Number_Of_Excluded_Results": "Number of Excluded Results",
  "Reason_Help_Block": "This reason will be emailed to the user.",
  "Result_Rejected_Subject": "Result rejected subject",
  "Result_Rejected_Html_Body": "Result rejected body (HTML)",
  "Result_Rejected_Html_Body_Help": "<ul><li>{{CHALLENGE_NAME}} - Name of the challenge</li><li>{{CHALLENGE_GROUP}} - Group of the challenge</li><li>{{RESULT_VALUE}} - Value of the result</li><li>{{RESULT_DATE}} - Date result was submitted</li><li>{{REJECT_REASON}} - Reason the result was rejected</li></ul>",
  "Result_Rejected_Plain_Body": "Result rejected body (plaintext)",
  "Result_Rejected_Plain_Body_Help": "<ul><li>{{CHALLENGE_NAME}} - Name of the challenge</li><li>{{CHALLENGE_GROUP}} - Group of the challenge</li><li>{{RESULT_VALUE}} - Value of the result</li><li>{{RESULT_DATE}} - Date result was submitted</li><li>{{REJECT_REASON}} - Reason the result was rejected</li></ul>",
  "Block": "Block",
  "User_Blocked": "User blocked:",
  "Unblock": "Unblock",
  "User_Unblocked": "User unblocked:",
  "Remove_Avatar": "Remove Avatar",
  "Avatar_Removed": "Avatar removed:",
  "User_Blocked_Subject": "User blocked subject",
  "User_Blocked_Html_Body": "User blocked body (HTML)",
  "User_Blocked_Html_Body_Help": "Use {{REASON}} for the reason.",
  "User_Blocked_Plain_Body": "User blocked body (plaintext)",
  "User_Blocked_Plain_Body_Help": "Use {{REASON}} for the reason.",
  "User_Unblocked_Subject": "User unblocked subject",
  "User_Unblocked_Html_Body": "User unblocked body (HTML)",
  "User_Unblocked_Plain_Body": "User unblocked body (plaintext)",
  "User_Avatar_Removed_Subject": "User avatar removed subject",
  "User_Avatar_Removed_Html_Body": "User avatar removed body (HTML)",
  "User_Avatar_Removed_Plain_Body": "User avatar removed body (plaintext)",
  "Register_Reminder_Subject": "Register reminder subject",
  "Register_Reminder_Html_Body": "Register reminder body (HTML)",
  "Register_Reminder_Plain_Body": "Register reminder body (plaintext)",
  "User_Challenge_Progress_Subject": "User challenge progress subject",
  "User_Challenge_Progress_Html_Body": "User challenge progress body (HTML)",
  "User_Challenge_Progress_Plain_Body": "User challenge progress body (plaintext)",
  "Leaderboard_Ranking_Subject": "Leaderboard ranking subject",
  "Leaderboard_Ranking_Html_Body": "Leaderboard ranking body (HTML)",
  "Leaderboard_Ranking_Plain_Body": "Leaderboard ranking body (plaintext)",
  "User_Deleted_Subject": "User deleted subject",
  "User_Deleted_Html_Body": "User deleted body (HTML)",
  "User_Deleted_Plain_Body": "User deleted body (plaintext)",
  "Social_Update_Rejected_Subject": "Social update rejected subject",
  "Social_Update_Rejected_Html_Body": "Social update rejected body (HTML)",
  "Social_Update_Rejected_Html_Body_Help": "Use {{REASON}} for the reason.",
  "Social_Update_Rejected_Plain_Body": "Social update rejected body (plaintext)",
  "Social_Update_Rejected_Plain_Body_Help": "Use {{REASON}} for the reason.",
  "Emails": "Emails",
  "Subject": "Subject",
  "Plain_Body": "Plaintext body",
  "Html_Body": "HTML body",
  "News": "News",
  "Promotion": "Promotion",
  "Email_Body_Help": "<ul><li>{{USER_FIRST_NAME}} - User's first name</li><li>{{USER_LAST_NAME}} - User's last name</li><li>{{USER_USERNAME}} - User's username</li></ul>",
  "Preview": "Preview",
  "Preview_Email_Sent": "A preview email has been sent to your email address for:",
  "Summary": "Summary",
  "Result_Submissions": "Result Submissions",
  "This_Will_Delete_Results": "Deleting this challenge will also delete it's associated results: ",
  "Danger": "Danger",
  "Published": "Published",
  "Error_Field_Invalid_DateTime": "Field is an invalid datetime.",
  "Bulk_Emails_Sent": "Bulk emails sent: ",
  "This_Will_Delete_User": "This will permanently and irrecoverably delete this user and any submitted results and uplodaed content. We prefer to block users rather than deleting them as blocked users can be unblocked. Only delete users if they have expressly requested their data removing.",
  "User_Deleted": "Deleted user:",
  "Admin_Users": "Admin Users",
  "Admin_User_Deleted": "Deleted admin user:",
  "Error_Field_Invalid_Email": "Field is not a valid email address.",
  "Error_Field_Must_Be_At_Least_5_Characters": "Field must be at least 5 characters long.",
  "Error_Field_Too_Long": "Field cannot be greater than 256 characters.",
  "Error_Field_Email_Is_Disposable": "Field cannot be a throwaway email address.",
  "Error_Email_Already_Registered": "This email address has already been registered.",
  "User_Nominated_Subject": "User nominated subject",
  "User_Nominated_Plain_Body": "User nominated body (plaintext)",
  "User_Nominated_Html_Body": "User nominated body (HTML)",
  "User_Nomination_Accepted_Subject": "Nomination accepted subject",
  "User_Nomination_Accepted_Plain_Body": "Nomination accepted body (plaintext)",
  "User_Nomination_Accepted_Html_Body": "Nomination accepted body (HTML)",
  "User_Password_Changed_Subject": "User password changed subject",
  "User_Password_Changed_Plain_Body": "User password changed body (plaintext)",
  "User_Password_Changed_Html_Body": "User password changed body (HTML)",
  "Hidden": "Hidden",
  "Coming_Soon": "Coming Soon",
  "Submitted": "Submitted",
  "Latest_Results": "Latest 20 Results",
  "Graph_Info": "Last 30 Days",
  "Social_Updates": "Social Updates",
  "Images": "Images",
  "Videos": "Videos",
  "Tags": "Tags",
  "Update": "Update",
  "Attachments": "Attachments",
  "Attachment": "Attachment",
  "Bio": "Bio",
  "Remove_Bio": "Remove Bio",
  "Bio_Removed": "Bio removed:",
  "Featured_User_Removed": "Featured user removed:",
  "Featured_User_Removed": "Featured user added",
  "Latitude" : "Latitude",
  "Longitude" : "Longitude",
  "Error_Field_NaN" : "Field can only contain a valid number",
  "Lat/Lon" : "Lat/Lon"
}
