<svg xmlns="http://www.w3.org/2000/svg" xmlns:xlink="http://www.w3.org/1999/xlink" version="1.1" id="Layer_1" x="0" y="0" width="164.41" height="26.08" viewBox="0 0 164.41 26.08" enable-background="new 0 0 164.41 26.078" xml:space="preserve">
  <pattern x="-216" y="433.89" width="69" height="69" patternUnits="userSpaceOnUse" id="Polka_Dot_Pattern" viewBox="2.13 -70.9 69 69" overflow="visible">
    <polygon fill="none" points="71.13 -1.9 2.13 -1.9 2.13 -70.9 71.13 -70.9 "/>
    <polygon fill="#F6BB60" points="71.13 -1.9 2.13 -1.9 2.13 -70.9 71.13 -70.9 "/>
    <path fill="#FFFFFF" d="M61.77-71.65c0.02 0.07 0.01 0.13-0.03 0.19 -0.05 0.1-0.11 0.06-0.16 0.13 -0.05 0.06-0.1 0.28-0.08 0.36 -0.17 0.06-0.01 0.23-0.01 0.35 0 0.05-0.04 0.11-0.04 0.16 -0.01 0.12 0.02 0.27 0.07 0.37 0.1 0.2 0.27 0.41 0.44 0.54 0.19 0.15 0.37 0.57 0.61 0.63 0.18 0.04 0.38-0.1 0.54-0.14 0.18-0.04 0.4 0.01 0.57-0.05 0.22-0.08 0.13-0.34 0.29-0.45 0.1-0.07 0.29-0.01 0.41-0.05 0.2-0.07 0.34-0.26 0.38-0.46 0.02-0.08 0.01-0.14 0.04-0.22 0.04-0.1 0.11-0.16 0.09-0.29 -0.01-0.06-0.05-0.12-0.06-0.19 -0.02-0.11 0-0.22 0-0.34 0-0.2 0.02-0.38-0.08-0.55 -0.38-0.69-1.24-0.93-1.97-0.79 -0.18 0.03-0.29 0.13-0.44 0.21 -0.17 0.09-0.14 0.17-0.32 0.22 -0.08 0.03-0.22 0.12-0.21 0.22 0 0.12 0.01 0.05 0.01 0.17 -0.02 0.01-0.02 0-0.03-0.02"/>
    <path fill="#FFFFFF" d="M54.11-71.65c0.02 0.07 0.01 0.13-0.03 0.19 -0.05 0.1-0.11 0.06-0.16 0.13 -0.05 0.06-0.1 0.28-0.08 0.36 -0.17 0.06-0.01 0.23-0.01 0.35 0 0.05-0.04 0.11-0.04 0.16 -0.01 0.12 0.02 0.27 0.07 0.37 0.1 0.2 0.27 0.41 0.44 0.54 0.19 0.15 0.37 0.57 0.61 0.63 0.18 0.04 0.38-0.1 0.54-0.14 0.18-0.04 0.4 0.01 0.57-0.05 0.22-0.08 0.13-0.34 0.29-0.45 0.1-0.07 0.29-0.01 0.41-0.05 0.2-0.07 0.34-0.26 0.38-0.46 0.02-0.08 0.01-0.14 0.04-0.22 0.04-0.1 0.11-0.16 0.09-0.29 -0.01-0.06-0.05-0.12-0.06-0.19 -0.02-0.11 0-0.22 0-0.34 0-0.2 0.02-0.38-0.08-0.55 -0.38-0.69-1.24-0.93-1.97-0.79 -0.18 0.03-0.29 0.13-0.44 0.21 -0.17 0.09-0.14 0.17-0.32 0.22 -0.08 0.03-0.22 0.12-0.21 0.22 0 0.12 0.01 0.05 0.01 0.17 -0.02 0.01-0.02 0-0.03-0.02"/>
    <path fill="#FFFFFF" d="M46.44-71.65c0.02 0.07 0.01 0.13-0.03 0.19 -0.05 0.1-0.11 0.06-0.16 0.13 -0.05 0.06-0.1 0.28-0.08 0.36 -0.17 0.06-0.01 0.23-0.01 0.35 0 0.05-0.04 0.11-0.04 0.16 -0.01 0.12 0.02 0.27 0.07 0.37 0.1 0.2 0.27 0.41 0.44 0.54 0.19 0.15 0.37 0.57 0.61 0.63 0.18 0.04 0.38-0.1 0.54-0.14 0.18-0.04 0.4 0.01 0.57-0.05 0.22-0.08 0.13-0.34 0.29-0.45 0.1-0.07 0.29-0.01 0.41-0.05 0.2-0.07 0.34-0.26 0.38-0.46 0.02-0.08 0.01-0.14 0.04-0.22 0.04-0.1 0.11-0.16 0.09-0.29 -0.01-0.06-0.05-0.12-0.06-0.19 -0.02-0.11 0-0.22 0-0.34 0-0.2 0.02-0.38-0.08-0.55 -0.38-0.69-1.24-0.93-1.97-0.79 -0.18 0.03-0.29 0.13-0.44 0.21 -0.17 0.09-0.14 0.17-0.32 0.22 -0.08 0.03-0.22 0.12-0.21 0.22 0 0.12 0.01 0.05 0.01 0.17 -0.02 0.01-0.02 0-0.03-0.02"/>
    <path fill="#FFFFFF" d="M38.77-71.65c0.02 0.07 0.01 0.13-0.03 0.19 -0.05 0.1-0.11 0.06-0.16 0.13 -0.05 0.06-0.1 0.28-0.08 0.36 -0.17 0.06-0.01 0.23-0.01 0.35 0 0.05-0.04 0.11-0.04 0.16 -0.01 0.12 0.02 0.27 0.07 0.37 0.1 0.2 0.27 0.41 0.44 0.54 0.19 0.15 0.37 0.57 0.61 0.63 0.18 0.04 0.38-0.1 0.54-0.14 0.18-0.04 0.4 0.01 0.57-0.05 0.22-0.08 0.13-0.34 0.29-0.45 0.1-0.07 0.29-0.01 0.41-0.05 0.2-0.07 0.34-0.26 0.38-0.46 0.02-0.08 0.01-0.14 0.04-0.22 0.04-0.1 0.11-0.16 0.09-0.29 -0.01-0.06-0.05-0.12-0.06-0.19 -0.02-0.11 0-0.22 0-0.34 0-0.2 0.02-0.38-0.08-0.55 -0.38-0.69-1.24-0.93-1.97-0.79 -0.18 0.03-0.29 0.13-0.44 0.21 -0.17 0.09-0.14 0.17-0.32 0.22 -0.08 0.03-0.22 0.12-0.21 0.22 0 0.12 0.01 0.05 0.01 0.17 -0.02 0.01-0.02 0-0.03-0.02"/>
    <path fill="#FFFFFF" d="M31.11-71.65c0.02 0.07 0.01 0.13-0.03 0.19 -0.05 0.1-0.11 0.06-0.16 0.13 -0.05 0.06-0.1 0.28-0.08 0.36 -0.17 0.06-0.01 0.23-0.01 0.35 0 0.05-0.04 0.11-0.04 0.16 -0.01 0.12 0.02 0.27 0.07 0.37 0.1 0.2 0.27 0.41 0.44 0.54 0.19 0.15 0.37 0.57 0.61 0.63 0.18 0.04 0.38-0.1 0.54-0.14 0.18-0.04 0.4 0.01 0.57-0.05 0.22-0.08 0.13-0.34 0.29-0.45 0.1-0.07 0.29-0.01 0.41-0.05 0.2-0.07 0.34-0.26 0.38-0.46 0.02-0.08 0.01-0.14 0.04-0.22 0.04-0.1 0.11-0.16 0.09-0.29 -0.01-0.06-0.05-0.12-0.06-0.19 -0.02-0.11 0-0.22 0-0.34 0-0.2 0.02-0.38-0.08-0.55 -0.38-0.69-1.24-0.93-1.97-0.79 -0.18 0.03-0.29 0.13-0.44 0.21 -0.17 0.09-0.14 0.17-0.32 0.22 -0.08 0.03-0.22 0.12-0.21 0.22 0 0.12 0.01 0.05 0.01 0.17 -0.02 0.01-0.02 0-0.03-0.02"/>
    <path fill="#FFFFFF" d="M23.44-71.65c0.02 0.07 0.01 0.13-0.03 0.19 -0.05 0.1-0.11 0.06-0.16 0.13 -0.05 0.06-0.1 0.28-0.08 0.36 -0.17 0.06-0.01 0.23-0.01 0.35 0 0.05-0.04 0.11-0.04 0.16 -0.01 0.12 0.02 0.27 0.07 0.37 0.1 0.2 0.27 0.41 0.44 0.54 0.19 0.15 0.37 0.57 0.61 0.63 0.18 0.04 0.38-0.1 0.54-0.14 0.18-0.04 0.4 0.01 0.57-0.05 0.22-0.08 0.13-0.34 0.29-0.45 0.1-0.07 0.29-0.01 0.41-0.05 0.2-0.07 0.34-0.26 0.38-0.46 0.02-0.08 0.01-0.14 0.04-0.22 0.04-0.1 0.11-0.16 0.09-0.29 -0.01-0.06-0.05-0.12-0.06-0.19 -0.02-0.11 0-0.22 0-0.34 0-0.2 0.02-0.38-0.08-0.55 -0.38-0.69-1.24-0.93-1.97-0.79 -0.18 0.03-0.29 0.13-0.44 0.21 -0.17 0.09-0.14 0.17-0.32 0.22 -0.08 0.03-0.22 0.12-0.21 0.22 0 0.12 0.01 0.05 0.01 0.17 -0.02 0.01-0.02 0-0.03-0.02"/>
    <path fill="#FFFFFF" d="M15.77-71.65c0.02 0.07 0.01 0.13-0.03 0.19 -0.05 0.1-0.11 0.06-0.16 0.13 -0.05 0.06-0.1 0.28-0.08 0.36 -0.17 0.06-0.01 0.23-0.01 0.35 0 0.05-0.04 0.11-0.04 0.16 -0.01 0.12 0.02 0.27 0.07 0.37 0.1 0.2 0.27 0.41 0.44 0.54 0.19 0.15 0.37 0.57 0.61 0.63 0.18 0.04 0.38-0.1 0.54-0.14 0.18-0.04 0.4 0.01 0.57-0.05 0.22-0.08 0.13-0.34 0.29-0.45 0.1-0.07 0.29-0.01 0.41-0.05 0.2-0.07 0.34-0.26 0.38-0.46 0.02-0.08 0.01-0.14 0.04-0.22 0.04-0.1 0.11-0.16 0.09-0.29 -0.01-0.06-0.05-0.12-0.06-0.19 -0.02-0.11 0-0.22 0-0.34 0-0.2 0.02-0.38-0.08-0.55 -0.38-0.69-1.24-0.93-1.97-0.79 -0.18 0.03-0.29 0.13-0.44 0.21 -0.17 0.09-0.14 0.17-0.32 0.22 -0.08 0.03-0.22 0.12-0.21 0.22 0 0.12 0.01 0.05 0.01 0.17 -0.02 0.01-0.02 0-0.03-0.02"/>
    <path fill="#FFFFFF" d="M8.11-71.65c0.02 0.07 0.01 0.13-0.03 0.19 -0.05 0.1-0.11 0.06-0.16 0.13 -0.05 0.06-0.1 0.28-0.08 0.36 -0.17 0.06-0.01 0.23-0.01 0.35 0 0.05-0.04 0.11-0.04 0.16 -0.01 0.12 0.02 0.27 0.07 0.37 0.1 0.2 0.27 0.41 0.44 0.54 0.19 0.15 0.37 0.57 0.61 0.63 0.18 0.04 0.38-0.1 0.54-0.14 0.18-0.04 0.4 0.01 0.57-0.05 0.22-0.08 0.13-0.34 0.29-0.45 0.1-0.07 0.29-0.01 0.41-0.05 0.2-0.07 0.34-0.26 0.38-0.46 0.02-0.08 0.01-0.14 0.04-0.22 0.04-0.1 0.11-0.16 0.09-0.29 -0.01-0.06-0.05-0.12-0.06-0.19 -0.02-0.11 0-0.22 0-0.34 0-0.2 0.02-0.38-0.08-0.55 -0.38-0.69-1.24-0.93-1.97-0.79 -0.18 0.03-0.29 0.13-0.44 0.21 -0.17 0.09-0.14 0.17-0.32 0.22 -0.08 0.03-0.22 0.12-0.21 0.22 0 0.12 0.01 0.05 0.01 0.17 -0.02 0.01-0.02 0-0.03-0.02"/>
    <path fill="#FFFFFF" d="M0.44-71.65c0.02 0.07 0.01 0.13-0.03 0.19C0.36-71.36 0.3-71.4 0.25-71.33c-0.05 0.06-0.1 0.28-0.08 0.36 -0.17 0.06-0.01 0.23-0.01 0.35 0 0.05-0.04 0.11-0.04 0.16 -0.01 0.12 0.02 0.27 0.07 0.37 0.1 0.2 0.27 0.41 0.44 0.54 0.19 0.15 0.37 0.57 0.61 0.63 0.18 0.04 0.38-0.1 0.54-0.14 0.18-0.04 0.4 0.01 0.57-0.05 0.22-0.08 0.13-0.34 0.29-0.45 0.1-0.07 0.29-0.01 0.41-0.05 0.2-0.07 0.34-0.26 0.38-0.46 0.02-0.08 0.01-0.14 0.04-0.22 0.04-0.1 0.11-0.16 0.09-0.29 -0.01-0.06-0.05-0.12-0.06-0.19 -0.02-0.11 0-0.22 0-0.34 0-0.2 0.02-0.38-0.08-0.55 -0.38-0.69-1.24-0.93-1.97-0.79 -0.18 0.03-0.29 0.13-0.44 0.21 -0.17 0.09-0.14 0.17-0.32 0.22 -0.08 0.03-0.21 0.12-0.21 0.22 0 0.12 0.01 0.05 0.01 0.17 -0.02 0.01-0.02 0-0.03-0.02"/>
    <path fill="#FFFFFF" d="M69.44-71.65c0.02 0.07 0.01 0.13-0.03 0.19 -0.05 0.1-0.11 0.06-0.16 0.13 -0.05 0.06-0.1 0.28-0.08 0.36 -0.17 0.06-0.01 0.23-0.01 0.35 0 0.05-0.04 0.11-0.04 0.16 -0.01 0.12 0.02 0.27 0.07 0.37 0.1 0.2 0.27 0.41 0.44 0.54 0.19 0.15 0.37 0.57 0.61 0.63 0.18 0.04 0.38-0.1 0.54-0.14 0.18-0.04 0.4 0.01 0.57-0.05 0.22-0.08 0.13-0.34 0.29-0.45 0.1-0.07 0.29-0.01 0.41-0.05 0.2-0.07 0.34-0.26 0.38-0.46 0.02-0.08 0.01-0.14 0.04-0.22 0.04-0.1 0.11-0.16 0.09-0.29 -0.01-0.06-0.05-0.12-0.06-0.19 -0.02-0.11 0-0.22 0-0.34 0-0.2 0.02-0.38-0.08-0.55 -0.38-0.69-1.24-0.93-1.97-0.79 -0.18 0.03-0.29 0.13-0.44 0.21 -0.17 0.09-0.14 0.17-0.32 0.22 -0.08 0.03-0.21 0.12-0.21 0.22 0 0.12 0.01 0.05 0.01 0.17 -0.02 0.01-0.02 0-0.03-0.02"/>
    <path fill="#FFFFFF" d="M0.5-71.65c0.02 0.07 0.01 0.13-0.03 0.19 -0.05 0.1-0.11 0.06-0.16 0.13 -0.05 0.06-0.1 0.28-0.08 0.36 -0.17 0.06-0.01 0.23-0.01 0.35 0 0.05-0.04 0.11-0.04 0.16 -0.01 0.12 0.02 0.27 0.07 0.37 0.1 0.2 0.27 0.41 0.44 0.54 0.19 0.15 0.37 0.57 0.61 0.63 0.18 0.04 0.38-0.1 0.54-0.14 0.18-0.04 0.4 0.01 0.57-0.05 0.22-0.08 0.13-0.34 0.29-0.45 0.1-0.07 0.29-0.01 0.41-0.05 0.2-0.07 0.34-0.26 0.38-0.46 0.02-0.08 0.01-0.14 0.04-0.22 0.04-0.1 0.11-0.16 0.09-0.29 -0.01-0.06-0.05-0.12-0.06-0.19 -0.02-0.11 0-0.22 0-0.34 0-0.2 0.02-0.38-0.08-0.55 -0.38-0.69-1.24-0.93-1.97-0.79 -0.18 0.03-0.29 0.13-0.44 0.21 -0.17 0.09-0.14 0.17-0.32 0.22 -0.08 0.03-0.21 0.12-0.21 0.22C0.5-71.68 0.5-71.74 0.51-71.63c-0.02 0.01-0.02 0-0.03-0.02"/>
    <path fill="#FFFFFF" d="M69.44-64c0.02 0.07 0.01 0.13-0.03 0.19 -0.05 0.1-0.11 0.06-0.16 0.13 -0.05 0.06-0.1 0.28-0.08 0.36 -0.17 0.06-0.01 0.23-0.01 0.35 0 0.05-0.04 0.11-0.04 0.16 -0.01 0.12 0.02 0.27 0.07 0.37 0.1 0.2 0.27 0.41 0.44 0.54 0.19 0.15 0.37 0.57 0.61 0.63 0.18 0.04 0.38-0.1 0.54-0.14 0.18-0.04 0.4 0.01 0.57-0.05 0.22-0.08 0.13-0.34 0.29-0.45 0.1-0.07 0.29-0.01 0.41-0.05 0.2-0.07 0.34-0.26 0.38-0.46 0.02-0.08 0.01-0.14 0.04-0.22 0.04-0.1 0.11-0.16 0.09-0.29 -0.01-0.06-0.05-0.12-0.06-0.19 -0.02-0.11 0-0.22 0-0.34 0-0.2 0.02-0.38-0.08-0.55 -0.38-0.69-1.24-0.93-1.97-0.79 -0.18 0.03-0.29 0.13-0.44 0.21 -0.17 0.09-0.14 0.17-0.32 0.22 -0.08 0.03-0.22 0.12-0.21 0.22 0 0.12 0.01 0.05 0.01 0.17 -0.02 0.01-0.02 0-0.03-0.02"/>
    <path fill="#FFFFFF" d="M61.78-64c0.02 0.07 0.01 0.13-0.03 0.19 -0.05 0.1-0.11 0.06-0.16 0.13 -0.05 0.06-0.1 0.28-0.08 0.36 -0.17 0.06-0.01 0.23-0.01 0.35 0 0.05-0.04 0.11-0.04 0.16 -0.01 0.12 0.02 0.27 0.07 0.37 0.1 0.2 0.27 0.41 0.44 0.54 0.19 0.15 0.37 0.57 0.61 0.63 0.18 0.04 0.38-0.1 0.54-0.14 0.18-0.04 0.4 0.01 0.57-0.05 0.22-0.08 0.13-0.34 0.29-0.45 0.1-0.07 0.29-0.01 0.41-0.05 0.2-0.07 0.34-0.26 0.38-0.46 0.02-0.08 0.01-0.14 0.04-0.22 0.04-0.1 0.11-0.16 0.09-0.29 -0.01-0.06-0.05-0.12-0.06-0.19 -0.02-0.11 0-0.22 0-0.34 0-0.2 0.02-0.38-0.08-0.55 -0.38-0.69-1.24-0.93-1.97-0.79 -0.18 0.03-0.29 0.13-0.44 0.21 -0.17 0.09-0.14 0.17-0.32 0.22 -0.08 0.03-0.22 0.12-0.21 0.22 0 0.12 0.01 0.05 0.01 0.17 -0.02 0.01-0.02 0-0.03-0.02"/>
    <path fill="#FFFFFF" d="M54.12-64c0.02 0.07 0.01 0.13-0.03 0.19 -0.05 0.1-0.11 0.06-0.16 0.13 -0.05 0.06-0.1 0.28-0.08 0.36 -0.17 0.06-0.01 0.23-0.01 0.35 0 0.05-0.04 0.11-0.04 0.16 -0.01 0.12 0.02 0.27 0.07 0.37 0.1 0.2 0.27 0.41 0.44 0.54 0.19 0.15 0.37 0.57 0.61 0.63 0.18 0.04 0.38-0.1 0.54-0.14 0.18-0.04 0.4 0.01 0.57-0.05 0.22-0.08 0.13-0.34 0.29-0.45 0.1-0.07 0.29-0.01 0.41-0.05 0.2-0.07 0.34-0.26 0.38-0.46 0.02-0.08 0.01-0.14 0.04-0.22 0.04-0.1 0.11-0.16 0.09-0.29 -0.01-0.06-0.05-0.12-0.06-0.19 -0.02-0.11 0-0.22 0-0.34 0-0.2 0.02-0.38-0.08-0.55 -0.38-0.69-1.24-0.93-1.97-0.79 -0.18 0.03-0.29 0.13-0.44 0.21 -0.17 0.09-0.14 0.17-0.32 0.22 -0.08 0.03-0.22 0.12-0.21 0.22 0 0.12 0.01 0.05 0.01 0.17 -0.02 0.01-0.02 0-0.03-0.02"/>
    <path fill="#FFFFFF" d="M46.46-64c0.02 0.07 0.01 0.13-0.03 0.19 -0.05 0.1-0.11 0.06-0.16 0.13 -0.05 0.06-0.1 0.28-0.08 0.36 -0.17 0.06-0.01 0.23-0.01 0.35 0 0.05-0.04 0.11-0.04 0.16 -0.01 0.12 0.02 0.27 0.07 0.37 0.1 0.2 0.27 0.41 0.44 0.54 0.19 0.15 0.37 0.57 0.61 0.63 0.18 0.04 0.38-0.1 0.54-0.14 0.18-0.04 0.4 0.01 0.57-0.05 0.22-0.08 0.13-0.34 0.29-0.45 0.1-0.07 0.29-0.01 0.41-0.05 0.2-0.07 0.34-0.26 0.38-0.46 0.02-0.08 0.01-0.14 0.04-0.22 0.04-0.1 0.11-0.16 0.09-0.29 -0.01-0.06-0.05-0.12-0.06-0.19 -0.02-0.11 0-0.22 0-0.34 0-0.2 0.02-0.38-0.08-0.55 -0.38-0.69-1.24-0.93-1.97-0.79 -0.18 0.03-0.29 0.13-0.44 0.21 -0.17 0.09-0.14 0.17-0.32 0.22 -0.08 0.03-0.22 0.12-0.21 0.22 0 0.12 0.01 0.05 0.01 0.17 -0.02 0.01-0.02 0-0.03-0.02"/>
    <path fill="#FFFFFF" d="M38.8-64c0.02 0.07 0.01 0.13-0.03 0.19 -0.05 0.1-0.11 0.06-0.16 0.13 -0.05 0.06-0.1 0.28-0.08 0.36 -0.17 0.06-0.01 0.23-0.01 0.35 0 0.05-0.04 0.11-0.04 0.16 -0.01 0.12 0.02 0.27 0.07 0.37 0.1 0.2 0.27 0.41 0.44 0.54 0.19 0.15 0.37 0.57 0.61 0.63 0.18 0.04 0.38-0.1 0.54-0.14 0.18-0.04 0.4 0.01 0.57-0.05 0.22-0.08 0.13-0.34 0.29-0.45 0.1-0.07 0.29-0.01 0.41-0.05 0.2-0.07 0.34-0.26 0.38-0.46 0.02-0.08 0.01-0.14 0.04-0.22 0.04-0.1 0.11-0.16 0.09-0.29 -0.01-0.06-0.05-0.12-0.06-0.19 -0.02-0.11 0-0.22 0-0.34 0-0.2 0.02-0.38-0.08-0.55 -0.38-0.69-1.24-0.93-1.97-0.79 -0.18 0.03-0.29 0.13-0.44 0.21 -0.17 0.09-0.14 0.17-0.32 0.22 -0.08 0.03-0.22 0.12-0.21 0.22 0 0.12 0.01 0.05 0.01 0.17 -0.02 0.01-0.02 0-0.03-0.02"/>
    <path fill="#FFFFFF" d="M31.14-64c0.02 0.07 0.01 0.13-0.03 0.19 -0.05 0.1-0.11 0.06-0.16 0.13 -0.05 0.06-0.1 0.28-0.08 0.36 -0.17 0.06-0.01 0.23-0.01 0.35 0 0.05-0.04 0.11-0.04 0.16 -0.01 0.12 0.02 0.27 0.07 0.37 0.1 0.2 0.27 0.41 0.44 0.54 0.19 0.15 0.37 0.57 0.61 0.63 0.18 0.04 0.38-0.1 0.54-0.14 0.18-0.04 0.4 0.01 0.57-0.05 0.22-0.08 0.13-0.34 0.29-0.45 0.1-0.07 0.29-0.01 0.41-0.05 0.2-0.07 0.34-0.26 0.38-0.46 0.02-0.08 0.01-0.14 0.04-0.22 0.04-0.1 0.11-0.16 0.09-0.29 -0.01-0.06-0.05-0.12-0.06-0.19 -0.02-0.11 0-0.22 0-0.34 0-0.2 0.02-0.38-0.08-0.55 -0.38-0.69-1.24-0.93-1.97-0.79 -0.18 0.03-0.29 0.13-0.44 0.21 -0.17 0.09-0.14 0.17-0.32 0.22 -0.08 0.03-0.22 0.12-0.21 0.22 0 0.12 0.01 0.05 0.01 0.17 -0.02 0.01-0.02 0-0.03-0.02"/>
    <path fill="#FFFFFF" d="M23.48-64c0.02 0.07 0.01 0.13-0.03 0.19 -0.05 0.1-0.11 0.06-0.16 0.13 -0.05 0.06-0.1 0.28-0.08 0.36 -0.17 0.06-0.01 0.23-0.01 0.35 0 0.05-0.04 0.11-0.04 0.16 -0.01 0.12 0.02 0.27 0.07 0.37 0.1 0.2 0.27 0.41 0.44 0.54 0.19 0.15 0.37 0.57 0.61 0.63 0.18 0.04 0.38-0.1 0.54-0.14 0.18-0.04 0.4 0.01 0.57-0.05 0.22-0.08 0.13-0.34 0.29-0.45 0.1-0.07 0.29-0.01 0.41-0.05 0.2-0.07 0.34-0.26 0.38-0.46 0.02-0.08 0.01-0.14 0.04-0.22 0.04-0.1 0.11-0.16 0.09-0.29 -0.01-0.06-0.05-0.12-0.06-0.19 -0.02-0.11 0-0.22 0-0.34 0-0.2 0.02-0.38-0.08-0.55 -0.38-0.69-1.24-0.93-1.97-0.79 -0.18 0.03-0.29 0.13-0.44 0.21 -0.17 0.09-0.14 0.17-0.32 0.22 -0.08 0.03-0.22 0.12-0.21 0.22 0 0.12 0.01 0.05 0.01 0.17 -0.02 0.01-0.02 0-0.03-0.02"/>
    <path fill="#FFFFFF" d="M15.82-64c0.02 0.07 0.01 0.13-0.03 0.19 -0.05 0.1-0.11 0.06-0.16 0.13 -0.05 0.06-0.1 0.28-0.08 0.36 -0.17 0.06-0.01 0.23-0.01 0.35 0 0.05-0.04 0.11-0.04 0.16 -0.01 0.12 0.02 0.27 0.07 0.37 0.1 0.2 0.27 0.41 0.44 0.54 0.19 0.15 0.37 0.57 0.61 0.63 0.18 0.04 0.38-0.1 0.54-0.14 0.18-0.04 0.4 0.01 0.57-0.05 0.22-0.08 0.13-0.34 0.29-0.45 0.1-0.07 0.29-0.01 0.41-0.05 0.2-0.07 0.34-0.26 0.38-0.46 0.02-0.08 0.01-0.14 0.04-0.22 0.04-0.1 0.11-0.16 0.09-0.29 -0.01-0.06-0.05-0.12-0.06-0.19 -0.02-0.11 0-0.22 0-0.34 0-0.2 0.02-0.38-0.08-0.55 -0.38-0.69-1.24-0.93-1.97-0.79 -0.18 0.03-0.29 0.13-0.44 0.21 -0.17 0.09-0.14 0.17-0.32 0.22 -0.08 0.03-0.22 0.12-0.21 0.22 0 0.12 0.01 0.05 0.01 0.17 -0.02 0.01-0.02 0-0.03-0.02"/>
    <path fill="#FFFFFF" d="M8.16-64c0.02 0.07 0.01 0.13-0.03 0.19 -0.05 0.1-0.11 0.06-0.16 0.13 -0.05 0.06-0.1 0.28-0.08 0.36 -0.17 0.06-0.01 0.23-0.01 0.35 0 0.05-0.04 0.11-0.04 0.16 -0.01 0.12 0.02 0.27 0.07 0.37 0.1 0.2 0.27 0.41 0.44 0.54 0.19 0.15 0.37 0.57 0.61 0.63 0.18 0.04 0.38-0.1 0.54-0.14 0.18-0.04 0.4 0.01 0.57-0.05 0.22-0.08 0.13-0.34 0.29-0.45 0.1-0.07 0.29-0.01 0.41-0.05 0.2-0.07 0.34-0.26 0.38-0.46 0.02-0.08 0.01-0.14 0.04-0.22 0.04-0.1 0.11-0.16 0.09-0.29 -0.01-0.06-0.05-0.12-0.06-0.19 -0.02-0.11 0-0.22 0-0.34 0-0.2 0.02-0.38-0.08-0.55 -0.38-0.69-1.24-0.93-1.97-0.79 -0.18 0.03-0.29 0.13-0.44 0.21 -0.17 0.09-0.14 0.17-0.32 0.22 -0.08 0.03-0.22 0.12-0.21 0.22 0 0.12 0.01 0.05 0.01 0.17 -0.02 0.01-0.02 0-0.03-0.02"/>
    <path fill="#FFFFFF" d="M0.5-64c0.02 0.07 0.01 0.13-0.03 0.19 -0.05 0.1-0.11 0.06-0.16 0.13 -0.05 0.06-0.1 0.28-0.08 0.36 -0.17 0.06-0.01 0.23-0.01 0.35 0 0.05-0.04 0.11-0.04 0.16 -0.01 0.12 0.02 0.27 0.07 0.37 0.1 0.2 0.27 0.41 0.44 0.54 0.19 0.15 0.37 0.57 0.61 0.63 0.18 0.04 0.38-0.1 0.54-0.14C2-61.45 2.22-61.4 2.39-61.46c0.22-0.08 0.13-0.34 0.29-0.45 0.1-0.07 0.29-0.01 0.41-0.05 0.2-0.07 0.34-0.26 0.38-0.46 0.02-0.08 0.01-0.14 0.04-0.22 0.04-0.1 0.11-0.16 0.09-0.29 -0.01-0.06-0.05-0.12-0.06-0.19 -0.02-0.11 0-0.22 0-0.34 0-0.2 0.02-0.38-0.08-0.55 -0.38-0.69-1.24-0.93-1.97-0.79 -0.18 0.03-0.29 0.13-0.44 0.21 -0.17 0.09-0.14 0.17-0.32 0.22 -0.08 0.03-0.22 0.12-0.21 0.22 0 0.12 0.01 0.05 0.01 0.17 -0.02 0.01-0.02 0-0.03-0.02"/>
    <path fill="#FFFFFF" d="M69.44-56.35c0.02 0.07 0.01 0.13-0.03 0.19 -0.05 0.1-0.11 0.06-0.16 0.13 -0.05 0.06-0.1 0.28-0.08 0.36 -0.17 0.06-0.01 0.23-0.01 0.35 0 0.05-0.04 0.11-0.04 0.16 -0.01 0.12 0.02 0.27 0.07 0.37 0.1 0.2 0.27 0.41 0.44 0.54 0.19 0.15 0.37 0.57 0.61 0.63 0.18 0.04 0.38-0.1 0.54-0.14 0.18-0.04 0.4 0.01 0.57-0.05 0.22-0.08 0.13-0.34 0.29-0.45 0.1-0.07 0.29-0.01 0.41-0.05 0.2-0.07 0.34-0.26 0.38-0.46 0.02-0.08 0.01-0.14 0.04-0.22 0.04-0.1 0.11-0.16 0.09-0.29 -0.01-0.06-0.05-0.12-0.06-0.19 -0.02-0.11 0-0.22 0-0.34 0-0.2 0.02-0.38-0.08-0.55 -0.38-0.69-1.24-0.93-1.97-0.79 -0.18 0.03-0.29 0.13-0.44 0.21 -0.17 0.09-0.14 0.17-0.32 0.22 -0.08 0.03-0.22 0.12-0.21 0.22 0 0.12 0.01 0.05 0.01 0.17 -0.02 0.01-0.02 0-0.03-0.02"/>
    <path fill="#FFFFFF" d="M61.78-56.35c0.02 0.07 0.01 0.13-0.03 0.19 -0.05 0.1-0.11 0.06-0.16 0.13 -0.05 0.06-0.1 0.28-0.08 0.36 -0.17 0.06-0.01 0.23-0.01 0.35 0 0.05-0.04 0.11-0.04 0.16 -0.01 0.12 0.02 0.27 0.07 0.37 0.1 0.2 0.27 0.41 0.44 0.54 0.19 0.15 0.37 0.57 0.61 0.63 0.18 0.04 0.38-0.1 0.54-0.14 0.18-0.04 0.4 0.01 0.57-0.05 0.22-0.08 0.13-0.34 0.29-0.45 0.1-0.07 0.29-0.01 0.41-0.05 0.2-0.07 0.34-0.26 0.38-0.46 0.02-0.08 0.01-0.14 0.04-0.22 0.04-0.1 0.11-0.16 0.09-0.29 -0.01-0.06-0.05-0.12-0.06-0.19 -0.02-0.11 0-0.22 0-0.34 0-0.2 0.02-0.38-0.08-0.55 -0.38-0.69-1.24-0.93-1.97-0.79 -0.18 0.03-0.29 0.13-0.44 0.21 -0.17 0.09-0.14 0.17-0.32 0.22 -0.08 0.03-0.22 0.12-0.21 0.22 0 0.12 0.01 0.05 0.01 0.17 -0.02 0.01-0.02 0-0.03-0.02"/>
    <path fill="#FFFFFF" d="M54.12-56.35c0.02 0.07 0.01 0.13-0.03 0.19 -0.05 0.1-0.11 0.06-0.16 0.13 -0.05 0.06-0.1 0.28-0.08 0.36 -0.17 0.06-0.01 0.23-0.01 0.35 0 0.05-0.04 0.11-0.04 0.16 -0.01 0.12 0.02 0.27 0.07 0.37 0.1 0.2 0.27 0.41 0.44 0.54 0.19 0.15 0.37 0.57 0.61 0.63 0.18 0.04 0.38-0.1 0.54-0.14 0.18-0.04 0.4 0.01 0.57-0.05 0.22-0.08 0.13-0.34 0.29-0.45 0.1-0.07 0.29-0.01 0.41-0.05 0.2-0.07 0.34-0.26 0.38-0.46 0.02-0.08 0.01-0.14 0.04-0.22 0.04-0.1 0.11-0.16 0.09-0.29 -0.01-0.06-0.05-0.12-0.06-0.19 -0.02-0.11 0-0.22 0-0.34 0-0.2 0.02-0.38-0.08-0.55 -0.38-0.69-1.24-0.93-1.97-0.79 -0.18 0.03-0.29 0.13-0.44 0.21 -0.17 0.09-0.14 0.17-0.32 0.22 -0.08 0.03-0.22 0.12-0.21 0.22 0 0.12 0.01 0.05 0.01 0.17 -0.02 0.01-0.02 0-0.03-0.02"/>
    <path fill="#FFFFFF" d="M46.46-56.35c0.02 0.07 0.01 0.13-0.03 0.19 -0.05 0.1-0.11 0.06-0.16 0.13 -0.05 0.06-0.1 0.28-0.08 0.36 -0.17 0.06-0.01 0.23-0.01 0.35 0 0.05-0.04 0.11-0.04 0.16 -0.01 0.12 0.02 0.27 0.07 0.37 0.1 0.2 0.27 0.41 0.44 0.54 0.19 0.15 0.37 0.57 0.61 0.63 0.18 0.04 0.38-0.1 0.54-0.14 0.18-0.04 0.4 0.01 0.57-0.05 0.22-0.08 0.13-0.34 0.29-0.45 0.1-0.07 0.29-0.01 0.41-0.05 0.2-0.07 0.34-0.26 0.38-0.46 0.02-0.08 0.01-0.14 0.04-0.22 0.04-0.1 0.11-0.16 0.09-0.29 -0.01-0.06-0.05-0.12-0.06-0.19 -0.02-0.11 0-0.22 0-0.34 0-0.2 0.02-0.38-0.08-0.55 -0.38-0.69-1.24-0.93-1.97-0.79 -0.18 0.03-0.29 0.13-0.44 0.21 -0.17 0.09-0.14 0.17-0.32 0.22 -0.08 0.03-0.22 0.12-0.21 0.22 0 0.12 0.01 0.05 0.01 0.17 -0.02 0.01-0.02 0-0.03-0.02"/>
    <path fill="#FFFFFF" d="M38.8-56.35c0.02 0.07 0.01 0.13-0.03 0.19 -0.05 0.1-0.11 0.06-0.16 0.13 -0.05 0.06-0.1 0.28-0.08 0.36 -0.17 0.06-0.01 0.23-0.01 0.35 0 0.05-0.04 0.11-0.04 0.16 -0.01 0.12 0.02 0.27 0.07 0.37 0.1 0.2 0.27 0.41 0.44 0.54 0.19 0.15 0.37 0.57 0.61 0.63 0.18 0.04 0.38-0.1 0.54-0.14 0.18-0.04 0.4 0.01 0.57-0.05 0.22-0.08 0.13-0.34 0.29-0.45 0.1-0.07 0.29-0.01 0.41-0.05 0.2-0.07 0.34-0.26 0.38-0.46 0.02-0.08 0.01-0.14 0.04-0.22 0.04-0.1 0.11-0.16 0.09-0.29 -0.01-0.06-0.05-0.12-0.06-0.19 -0.02-0.11 0-0.22 0-0.34 0-0.2 0.02-0.38-0.08-0.55 -0.38-0.69-1.24-0.93-1.97-0.79 -0.18 0.03-0.29 0.13-0.44 0.21 -0.17 0.09-0.14 0.17-0.32 0.22 -0.08 0.03-0.22 0.12-0.21 0.22 0 0.12 0.01 0.05 0.01 0.17 -0.02 0.01-0.02 0-0.03-0.02"/>
    <path fill="#FFFFFF" d="M31.14-56.35c0.02 0.07 0.01 0.13-0.03 0.19 -0.05 0.1-0.11 0.06-0.16 0.13 -0.05 0.06-0.1 0.28-0.08 0.36 -0.17 0.06-0.01 0.23-0.01 0.35 0 0.05-0.04 0.11-0.04 0.16 -0.01 0.12 0.02 0.27 0.07 0.37 0.1 0.2 0.27 0.41 0.44 0.54 0.19 0.15 0.37 0.57 0.61 0.63 0.18 0.04 0.38-0.1 0.54-0.14 0.18-0.04 0.4 0.01 0.57-0.05 0.22-0.08 0.13-0.34 0.29-0.45 0.1-0.07 0.29-0.01 0.41-0.05 0.2-0.07 0.34-0.26 0.38-0.46 0.02-0.08 0.01-0.14 0.04-0.22 0.04-0.1 0.11-0.16 0.09-0.29 -0.01-0.06-0.05-0.12-0.06-0.19 -0.02-0.11 0-0.22 0-0.34 0-0.2 0.02-0.38-0.08-0.55 -0.38-0.69-1.24-0.93-1.97-0.79 -0.18 0.03-0.29 0.13-0.44 0.21 -0.17 0.09-0.14 0.17-0.32 0.22 -0.08 0.03-0.22 0.12-0.21 0.22 0 0.12 0.01 0.05 0.01 0.17 -0.02 0.01-0.02 0-0.03-0.02"/>
    <path fill="#FFFFFF" d="M23.48-56.35c0.02 0.07 0.01 0.13-0.03 0.19 -0.05 0.1-0.11 0.06-0.16 0.13 -0.05 0.06-0.1 0.28-0.08 0.36 -0.17 0.06-0.01 0.23-0.01 0.35 0 0.05-0.04 0.11-0.04 0.16 -0.01 0.12 0.02 0.27 0.07 0.37 0.1 0.2 0.27 0.41 0.44 0.54 0.19 0.15 0.37 0.57 0.61 0.63 0.18 0.04 0.38-0.1 0.54-0.14 0.18-0.04 0.4 0.01 0.57-0.05 0.22-0.08 0.13-0.34 0.29-0.45 0.1-0.07 0.29-0.01 0.41-0.05 0.2-0.07 0.34-0.26 0.38-0.46 0.02-0.08 0.01-0.14 0.04-0.22 0.04-0.1 0.11-0.16 0.09-0.29 -0.01-0.06-0.05-0.12-0.06-0.19 -0.02-0.11 0-0.22 0-0.34 0-0.2 0.02-0.38-0.08-0.55 -0.38-0.69-1.24-0.93-1.97-0.79 -0.18 0.03-0.29 0.13-0.44 0.21 -0.17 0.09-0.14 0.17-0.32 0.22 -0.08 0.03-0.22 0.12-0.21 0.22 0 0.12 0.01 0.05 0.01 0.17 -0.02 0.01-0.02 0-0.03-0.02"/>
    <path fill="#FFFFFF" d="M15.82-56.35c0.02 0.07 0.01 0.13-0.03 0.19 -0.05 0.1-0.11 0.06-0.16 0.13 -0.05 0.06-0.1 0.28-0.08 0.36 -0.17 0.06-0.01 0.23-0.01 0.35 0 0.05-0.04 0.11-0.04 0.16 -0.01 0.12 0.02 0.27 0.07 0.37 0.1 0.2 0.27 0.41 0.44 0.54 0.19 0.15 0.37 0.57 0.61 0.63 0.18 0.04 0.38-0.1 0.54-0.14 0.18-0.04 0.4 0.01 0.57-0.05 0.22-0.08 0.13-0.34 0.29-0.45 0.1-0.07 0.29-0.01 0.41-0.05 0.2-0.07 0.34-0.26 0.38-0.46 0.02-0.08 0.01-0.14 0.04-0.22 0.04-0.1 0.11-0.16 0.09-0.29 -0.01-0.06-0.05-0.12-0.06-0.19 -0.02-0.11 0-0.22 0-0.34 0-0.2 0.02-0.38-0.08-0.55 -0.38-0.69-1.24-0.93-1.97-0.79 -0.18 0.03-0.29 0.13-0.44 0.21 -0.17 0.09-0.14 0.17-0.32 0.22 -0.08 0.03-0.22 0.12-0.21 0.22 0 0.12 0.01 0.05 0.01 0.17 -0.02 0.01-0.02 0-0.03-0.02"/>
    <path fill="#FFFFFF" d="M8.16-56.35c0.02 0.07 0.01 0.13-0.03 0.19 -0.05 0.1-0.11 0.06-0.16 0.13 -0.05 0.06-0.1 0.28-0.08 0.36 -0.17 0.06-0.01 0.23-0.01 0.35 0 0.05-0.04 0.11-0.04 0.16 -0.01 0.12 0.02 0.27 0.07 0.37 0.1 0.2 0.27 0.41 0.44 0.54 0.19 0.15 0.37 0.57 0.61 0.63 0.18 0.04 0.38-0.1 0.54-0.14 0.18-0.04 0.4 0.01 0.57-0.05 0.22-0.08 0.13-0.34 0.29-0.45 0.1-0.07 0.29-0.01 0.41-0.05 0.2-0.07 0.34-0.26 0.38-0.46 0.02-0.08 0.01-0.14 0.04-0.22 0.04-0.1 0.11-0.16 0.09-0.29 -0.01-0.06-0.05-0.12-0.06-0.19 -0.02-0.11 0-0.22 0-0.34 0-0.2 0.02-0.38-0.08-0.55 -0.38-0.69-1.24-0.93-1.97-0.79 -0.18 0.03-0.29 0.13-0.44 0.21 -0.17 0.09-0.14 0.17-0.32 0.22 -0.08 0.03-0.22 0.12-0.21 0.22 0 0.12 0.01 0.05 0.01 0.17 -0.02 0.01-0.02 0-0.03-0.02"/>
    <path fill="#FFFFFF" d="M0.5-56.35c0.02 0.07 0.01 0.13-0.03 0.19 -0.05 0.1-0.11 0.06-0.16 0.13 -0.05 0.06-0.1 0.28-0.08 0.36 -0.17 0.06-0.01 0.23-0.01 0.35 0 0.05-0.04 0.11-0.04 0.16 -0.01 0.12 0.02 0.27 0.07 0.37 0.1 0.2 0.27 0.41 0.44 0.54 0.19 0.15 0.37 0.57 0.61 0.63 0.18 0.04 0.38-0.1 0.54-0.14 0.18-0.04 0.4 0.01 0.57-0.05 0.22-0.08 0.13-0.34 0.29-0.45 0.1-0.07 0.29-0.01 0.41-0.05 0.2-0.07 0.34-0.26 0.38-0.46 0.02-0.08 0.01-0.14 0.04-0.22 0.04-0.1 0.11-0.16 0.09-0.29 -0.01-0.06-0.05-0.12-0.06-0.19 -0.02-0.11 0-0.22 0-0.34 0-0.2 0.02-0.38-0.08-0.55 -0.38-0.69-1.24-0.93-1.97-0.79 -0.18 0.03-0.29 0.13-0.44 0.21 -0.17 0.09-0.14 0.17-0.32 0.22 -0.08 0.03-0.22 0.12-0.21 0.22C0.5-56.37 0.5-56.44 0.51-56.32c-0.02 0.01-0.02 0-0.03-0.02"/>
    <path fill="#FFFFFF" d="M69.44-48.69c0.02 0.07 0.01 0.13-0.03 0.19 -0.05 0.1-0.11 0.06-0.16 0.13 -0.05 0.06-0.1 0.28-0.08 0.36 -0.17 0.06-0.01 0.23-0.01 0.35 0 0.05-0.04 0.11-0.04 0.16 -0.01 0.12 0.02 0.27 0.07 0.37 0.1 0.2 0.27 0.41 0.44 0.54 0.19 0.15 0.37 0.57 0.61 0.63 0.18 0.04 0.38-0.1 0.54-0.14 0.18-0.04 0.4 0.01 0.57-0.05 0.22-0.08 0.13-0.34 0.29-0.45 0.1-0.07 0.29-0.01 0.41-0.05 0.2-0.07 0.34-0.26 0.38-0.46 0.02-0.08 0.01-0.14 0.04-0.22 0.04-0.1 0.11-0.16 0.09-0.29 -0.01-0.06-0.05-0.12-0.06-0.19 -0.02-0.11 0-0.22 0-0.34 0-0.2 0.02-0.38-0.08-0.55 -0.38-0.69-1.24-0.93-1.97-0.79 -0.18 0.03-0.29 0.13-0.44 0.21 -0.17 0.09-0.14 0.17-0.32 0.22 -0.08 0.03-0.22 0.12-0.21 0.22 0 0.12 0.01 0.05 0.01 0.17 -0.02 0.01-0.02 0-0.03-0.02"/>
    <path fill="#FFFFFF" d="M61.78-48.69c0.02 0.07 0.01 0.13-0.03 0.19 -0.05 0.1-0.11 0.06-0.16 0.13 -0.05 0.06-0.1 0.28-0.08 0.36 -0.17 0.06-0.01 0.23-0.01 0.35 0 0.05-0.04 0.11-0.04 0.16 -0.01 0.12 0.02 0.27 0.07 0.37 0.1 0.2 0.27 0.41 0.44 0.54 0.19 0.15 0.37 0.57 0.61 0.63 0.18 0.04 0.38-0.1 0.54-0.14 0.18-0.04 0.4 0.01 0.57-0.05 0.22-0.08 0.13-0.34 0.29-0.45 0.1-0.07 0.29-0.01 0.41-0.05 0.2-0.07 0.34-0.26 0.38-0.46 0.02-0.08 0.01-0.14 0.04-0.22 0.04-0.1 0.11-0.16 0.09-0.29 -0.01-0.06-0.05-0.12-0.06-0.19 -0.02-0.11 0-0.22 0-0.34 0-0.2 0.02-0.38-0.08-0.55 -0.38-0.69-1.24-0.93-1.97-0.79 -0.18 0.03-0.29 0.13-0.44 0.21 -0.17 0.09-0.14 0.17-0.32 0.22 -0.08 0.03-0.22 0.12-0.21 0.22 0 0.12 0.01 0.05 0.01 0.17 -0.02 0.01-0.02 0-0.03-0.02"/>
    <path fill="#FFFFFF" d="M54.12-48.69c0.02 0.07 0.01 0.13-0.03 0.19 -0.05 0.1-0.11 0.06-0.16 0.13 -0.05 0.06-0.1 0.28-0.08 0.36 -0.17 0.06-0.01 0.23-0.01 0.35 0 0.05-0.04 0.11-0.04 0.16 -0.01 0.12 0.02 0.27 0.07 0.37 0.1 0.2 0.27 0.41 0.44 0.54 0.19 0.15 0.37 0.57 0.61 0.63 0.18 0.04 0.38-0.1 0.54-0.14 0.18-0.04 0.4 0.01 0.57-0.05 0.22-0.08 0.13-0.34 0.29-0.45 0.1-0.07 0.29-0.01 0.41-0.05 0.2-0.07 0.34-0.26 0.38-0.46 0.02-0.08 0.01-0.14 0.04-0.22 0.04-0.1 0.11-0.16 0.09-0.29 -0.01-0.06-0.05-0.12-0.06-0.19 -0.02-0.11 0-0.22 0-0.34 0-0.2 0.02-0.38-0.08-0.55 -0.38-0.69-1.24-0.93-1.97-0.79 -0.18 0.03-0.29 0.13-0.44 0.21 -0.17 0.09-0.14 0.17-0.32 0.22 -0.08 0.03-0.22 0.12-0.21 0.22 0 0.12 0.01 0.05 0.01 0.17 -0.02 0.01-0.02 0-0.03-0.02"/>
    <path fill="#FFFFFF" d="M46.46-48.69c0.02 0.07 0.01 0.13-0.03 0.19 -0.05 0.1-0.11 0.06-0.16 0.13 -0.05 0.06-0.1 0.28-0.08 0.36 -0.17 0.06-0.01 0.23-0.01 0.35 0 0.05-0.04 0.11-0.04 0.16 -0.01 0.12 0.02 0.27 0.07 0.37 0.1 0.2 0.27 0.41 0.44 0.54 0.19 0.15 0.37 0.57 0.61 0.63 0.18 0.04 0.38-0.1 0.54-0.14 0.18-0.04 0.4 0.01 0.57-0.05 0.22-0.08 0.13-0.34 0.29-0.45 0.1-0.07 0.29-0.01 0.41-0.05 0.2-0.07 0.34-0.26 0.38-0.46 0.02-0.08 0.01-0.14 0.04-0.22 0.04-0.1 0.11-0.16 0.09-0.29 -0.01-0.06-0.05-0.12-0.06-0.19 -0.02-0.11 0-0.22 0-0.34 0-0.2 0.02-0.38-0.08-0.55 -0.38-0.69-1.24-0.93-1.97-0.79 -0.18 0.03-0.29 0.13-0.44 0.21 -0.17 0.09-0.14 0.17-0.32 0.22 -0.08 0.03-0.22 0.12-0.21 0.22 0 0.12 0.01 0.05 0.01 0.17 -0.02 0.01-0.02 0-0.03-0.02"/>
    <path fill="#FFFFFF" d="M38.8-48.69c0.02 0.07 0.01 0.13-0.03 0.19 -0.05 0.1-0.11 0.06-0.16 0.13 -0.05 0.06-0.1 0.28-0.08 0.36 -0.17 0.06-0.01 0.23-0.01 0.35 0 0.05-0.04 0.11-0.04 0.16 -0.01 0.12 0.02 0.27 0.07 0.37 0.1 0.2 0.27 0.41 0.44 0.54 0.19 0.15 0.37 0.57 0.61 0.63 0.18 0.04 0.38-0.1 0.54-0.14 0.18-0.04 0.4 0.01 0.57-0.05 0.22-0.08 0.13-0.34 0.29-0.45 0.1-0.07 0.29-0.01 0.41-0.05 0.2-0.07 0.34-0.26 0.38-0.46 0.02-0.08 0.01-0.14 0.04-0.22 0.04-0.1 0.11-0.16 0.09-0.29 -0.01-0.06-0.05-0.12-0.06-0.19 -0.02-0.11 0-0.22 0-0.34 0-0.2 0.02-0.38-0.08-0.55 -0.38-0.69-1.24-0.93-1.97-0.79 -0.18 0.03-0.29 0.13-0.44 0.21 -0.17 0.09-0.14 0.17-0.32 0.22 -0.08 0.03-0.22 0.12-0.21 0.22 0 0.12 0.01 0.05 0.01 0.17 -0.02 0.01-0.02 0-0.03-0.02"/>
    <path fill="#FFFFFF" d="M31.14-48.69c0.02 0.07 0.01 0.13-0.03 0.19 -0.05 0.1-0.11 0.06-0.16 0.13 -0.05 0.06-0.1 0.28-0.08 0.36 -0.17 0.06-0.01 0.23-0.01 0.35 0 0.05-0.04 0.11-0.04 0.16 -0.01 0.12 0.02 0.27 0.07 0.37 0.1 0.2 0.27 0.41 0.44 0.54 0.19 0.15 0.37 0.57 0.61 0.63 0.18 0.04 0.38-0.1 0.54-0.14 0.18-0.04 0.4 0.01 0.57-0.05 0.22-0.08 0.13-0.34 0.29-0.45 0.1-0.07 0.29-0.01 0.41-0.05 0.2-0.07 0.34-0.26 0.38-0.46 0.02-0.08 0.01-0.14 0.04-0.22 0.04-0.1 0.11-0.16 0.09-0.29 -0.01-0.06-0.05-0.12-0.06-0.19 -0.02-0.11 0-0.22 0-0.34 0-0.2 0.02-0.38-0.08-0.55 -0.38-0.69-1.24-0.93-1.97-0.79 -0.18 0.03-0.29 0.13-0.44 0.21 -0.17 0.09-0.14 0.17-0.32 0.22 -0.08 0.03-0.22 0.12-0.21 0.22 0 0.12 0.01 0.05 0.01 0.17 -0.02 0.01-0.02 0-0.03-0.02"/>
    <path fill="#FFFFFF" d="M23.48-48.69c0.02 0.07 0.01 0.13-0.03 0.19 -0.05 0.1-0.11 0.06-0.16 0.13 -0.05 0.06-0.1 0.28-0.08 0.36 -0.17 0.06-0.01 0.23-0.01 0.35 0 0.05-0.04 0.11-0.04 0.16 -0.01 0.12 0.02 0.27 0.07 0.37 0.1 0.2 0.27 0.41 0.44 0.54 0.19 0.15 0.37 0.57 0.61 0.63 0.18 0.04 0.38-0.1 0.54-0.14 0.18-0.04 0.4 0.01 0.57-0.05 0.22-0.08 0.13-0.34 0.29-0.45 0.1-0.07 0.29-0.01 0.41-0.05 0.2-0.07 0.34-0.26 0.38-0.46 0.02-0.08 0.01-0.14 0.04-0.22 0.04-0.1 0.11-0.16 0.09-0.29 -0.01-0.06-0.05-0.12-0.06-0.19 -0.02-0.11 0-0.22 0-0.34 0-0.2 0.02-0.38-0.08-0.55 -0.38-0.69-1.24-0.93-1.97-0.79 -0.18 0.03-0.29 0.13-0.44 0.21 -0.17 0.09-0.14 0.17-0.32 0.22 -0.08 0.03-0.22 0.12-0.21 0.22 0 0.12 0.01 0.05 0.01 0.17 -0.02 0.01-0.02 0-0.03-0.02"/>
    <path fill="#FFFFFF" d="M15.82-48.69c0.02 0.07 0.01 0.13-0.03 0.19 -0.05 0.1-0.11 0.06-0.16 0.13 -0.05 0.06-0.1 0.28-0.08 0.36 -0.17 0.06-0.01 0.23-0.01 0.35 0 0.05-0.04 0.11-0.04 0.16 -0.01 0.12 0.02 0.27 0.07 0.37 0.1 0.2 0.27 0.41 0.44 0.54 0.19 0.15 0.37 0.57 0.61 0.63 0.18 0.04 0.38-0.1 0.54-0.14 0.18-0.04 0.4 0.01 0.57-0.05 0.22-0.08 0.13-0.34 0.29-0.45 0.1-0.07 0.29-0.01 0.41-0.05 0.2-0.07 0.34-0.26 0.38-0.46 0.02-0.08 0.01-0.14 0.04-0.22 0.04-0.1 0.11-0.16 0.09-0.29 -0.01-0.06-0.05-0.12-0.06-0.19 -0.02-0.11 0-0.22 0-0.34 0-0.2 0.02-0.38-0.08-0.55 -0.38-0.69-1.24-0.93-1.97-0.79 -0.18 0.03-0.29 0.13-0.44 0.21 -0.17 0.09-0.14 0.17-0.32 0.22 -0.08 0.03-0.22 0.12-0.21 0.22 0 0.12 0.01 0.05 0.01 0.17 -0.02 0.01-0.02 0-0.03-0.02"/>
    <path fill="#FFFFFF" d="M8.16-48.69c0.02 0.07 0.01 0.13-0.03 0.19 -0.05 0.1-0.11 0.06-0.16 0.13 -0.05 0.06-0.1 0.28-0.08 0.36 -0.17 0.06-0.01 0.23-0.01 0.35 0 0.05-0.04 0.11-0.04 0.16 -0.01 0.12 0.02 0.27 0.07 0.37 0.1 0.2 0.27 0.41 0.44 0.54 0.19 0.15 0.37 0.57 0.61 0.63 0.18 0.04 0.38-0.1 0.54-0.14 0.18-0.04 0.4 0.01 0.57-0.05 0.22-0.08 0.13-0.34 0.29-0.45 0.1-0.07 0.29-0.01 0.41-0.05 0.2-0.07 0.34-0.26 0.38-0.46 0.02-0.08 0.01-0.14 0.04-0.22 0.04-0.1 0.11-0.16 0.09-0.29 -0.01-0.06-0.05-0.12-0.06-0.19 -0.02-0.11 0-0.22 0-0.34 0-0.2 0.02-0.38-0.08-0.55 -0.38-0.69-1.24-0.93-1.97-0.79 -0.18 0.03-0.29 0.13-0.44 0.21 -0.17 0.09-0.14 0.17-0.32 0.22 -0.08 0.03-0.22 0.12-0.21 0.22 0 0.12 0.01 0.05 0.01 0.17 -0.02 0.01-0.02 0-0.03-0.02"/>
    <path fill="#FFFFFF" d="M0.5-48.69c0.02 0.07 0.01 0.13-0.03 0.19 -0.05 0.1-0.11 0.06-0.16 0.13 -0.05 0.06-0.1 0.28-0.08 0.36 -0.17 0.06-0.01 0.23-0.01 0.35 0 0.05-0.04 0.11-0.04 0.16 -0.01 0.12 0.02 0.27 0.07 0.37 0.1 0.2 0.27 0.41 0.44 0.54 0.19 0.15 0.37 0.57 0.61 0.63 0.18 0.04 0.38-0.1 0.54-0.14 0.18-0.04 0.4 0.01 0.57-0.05 0.22-0.08 0.13-0.34 0.29-0.45 0.1-0.07 0.29-0.01 0.41-0.05 0.2-0.07 0.34-0.26 0.38-0.46 0.02-0.08 0.01-0.14 0.04-0.22 0.04-0.1 0.11-0.16 0.09-0.29 -0.01-0.06-0.05-0.12-0.06-0.19 -0.02-0.11 0-0.22 0-0.34 0-0.2 0.02-0.38-0.08-0.55 -0.38-0.69-1.24-0.93-1.97-0.79 -0.18 0.03-0.29 0.13-0.44 0.21 -0.17 0.09-0.14 0.17-0.32 0.22 -0.08 0.03-0.22 0.12-0.21 0.22 0 0.12 0.01 0.05 0.01 0.17 -0.02 0.01-0.02 0-0.03-0.02"/>
    <path fill="#FFFFFF" d="M69.44-41.04c0.02 0.07 0.01 0.13-0.03 0.19 -0.05 0.1-0.11 0.06-0.16 0.13 -0.05 0.06-0.1 0.28-0.08 0.36 -0.17 0.06-0.01 0.23-0.01 0.35 0 0.05-0.04 0.11-0.04 0.16 -0.01 0.12 0.02 0.27 0.07 0.37 0.1 0.2 0.27 0.41 0.44 0.54 0.19 0.15 0.37 0.57 0.61 0.63 0.18 0.04 0.38-0.1 0.54-0.14 0.18-0.04 0.4 0.01 0.57-0.05 0.22-0.08 0.13-0.34 0.29-0.45 0.1-0.07 0.29-0.01 0.41-0.05 0.2-0.07 0.34-0.26 0.38-0.46 0.02-0.08 0.01-0.14 0.04-0.22 0.04-0.1 0.11-0.16 0.09-0.29 -0.01-0.06-0.05-0.12-0.06-0.19 -0.02-0.11 0-0.22 0-0.34 0-0.2 0.02-0.38-0.08-0.55 -0.38-0.69-1.24-0.93-1.97-0.79 -0.18 0.03-0.29 0.13-0.44 0.21 -0.17 0.09-0.14 0.17-0.32 0.22 -0.08 0.03-0.22 0.12-0.21 0.22 0 0.12 0.01 0.05 0.01 0.17 -0.02 0.01-0.02 0-0.03-0.02"/>
    <path fill="#FFFFFF" d="M61.78-41.04c0.02 0.07 0.01 0.13-0.03 0.19 -0.05 0.1-0.11 0.06-0.16 0.13 -0.05 0.06-0.1 0.28-0.08 0.36 -0.17 0.06-0.01 0.23-0.01 0.35 0 0.05-0.04 0.11-0.04 0.16 -0.01 0.12 0.02 0.27 0.07 0.37 0.1 0.2 0.27 0.41 0.44 0.54 0.19 0.15 0.37 0.57 0.61 0.63 0.18 0.04 0.38-0.1 0.54-0.14 0.18-0.04 0.4 0.01 0.57-0.05 0.22-0.08 0.13-0.34 0.29-0.45 0.1-0.07 0.29-0.01 0.41-0.05 0.2-0.07 0.34-0.26 0.38-0.46 0.02-0.08 0.01-0.14 0.04-0.22 0.04-0.1 0.11-0.16 0.09-0.29 -0.01-0.06-0.05-0.12-0.06-0.19 -0.02-0.11 0-0.22 0-0.34 0-0.2 0.02-0.38-0.08-0.55 -0.38-0.69-1.24-0.93-1.97-0.79 -0.18 0.03-0.29 0.13-0.44 0.21 -0.17 0.09-0.14 0.17-0.32 0.22 -0.08 0.03-0.22 0.12-0.21 0.22 0 0.12 0.01 0.05 0.01 0.17 -0.02 0.01-0.02 0-0.03-0.02"/>
    <path fill="#FFFFFF" d="M54.12-41.04c0.02 0.07 0.01 0.13-0.03 0.19 -0.05 0.1-0.11 0.06-0.16 0.13 -0.05 0.06-0.1 0.28-0.08 0.36 -0.17 0.06-0.01 0.23-0.01 0.35 0 0.05-0.04 0.11-0.04 0.16 -0.01 0.12 0.02 0.27 0.07 0.37 0.1 0.2 0.27 0.41 0.44 0.54 0.19 0.15 0.37 0.57 0.61 0.63 0.18 0.04 0.38-0.1 0.54-0.14 0.18-0.04 0.4 0.01 0.57-0.05 0.22-0.08 0.13-0.34 0.29-0.45 0.1-0.07 0.29-0.01 0.41-0.05 0.2-0.07 0.34-0.26 0.38-0.46 0.02-0.08 0.01-0.14 0.04-0.22 0.04-0.1 0.11-0.16 0.09-0.29 -0.01-0.06-0.05-0.12-0.06-0.19 -0.02-0.11 0-0.22 0-0.34 0-0.2 0.02-0.38-0.08-0.55 -0.38-0.69-1.24-0.93-1.97-0.79 -0.18 0.03-0.29 0.13-0.44 0.21 -0.17 0.09-0.14 0.17-0.32 0.22 -0.08 0.03-0.22 0.12-0.21 0.22 0 0.12 0.01 0.05 0.01 0.17 -0.02 0.01-0.02 0-0.03-0.02"/>
    <path fill="#FFFFFF" d="M46.46-41.04c0.02 0.07 0.01 0.13-0.03 0.19 -0.05 0.1-0.11 0.06-0.16 0.13 -0.05 0.06-0.1 0.28-0.08 0.36 -0.17 0.06-0.01 0.23-0.01 0.35 0 0.05-0.04 0.11-0.04 0.16 -0.01 0.12 0.02 0.27 0.07 0.37 0.1 0.2 0.27 0.41 0.44 0.54 0.19 0.15 0.37 0.57 0.61 0.63 0.18 0.04 0.38-0.1 0.54-0.14 0.18-0.04 0.4 0.01 0.57-0.05 0.22-0.08 0.13-0.34 0.29-0.45 0.1-0.07 0.29-0.01 0.41-0.05 0.2-0.07 0.34-0.26 0.38-0.46 0.02-0.08 0.01-0.14 0.04-0.22 0.04-0.1 0.11-0.16 0.09-0.29 -0.01-0.06-0.05-0.12-0.06-0.19 -0.02-0.11 0-0.22 0-0.34 0-0.2 0.02-0.38-0.08-0.55 -0.38-0.69-1.24-0.93-1.97-0.79 -0.18 0.03-0.29 0.13-0.44 0.21 -0.17 0.09-0.14 0.17-0.32 0.22 -0.08 0.03-0.22 0.12-0.21 0.22 0 0.12 0.01 0.05 0.01 0.17 -0.02 0.01-0.02 0-0.03-0.02"/>
    <path fill="#FFFFFF" d="M38.8-41.04c0.02 0.07 0.01 0.13-0.03 0.19 -0.05 0.1-0.11 0.06-0.16 0.13 -0.05 0.06-0.1 0.28-0.08 0.36 -0.17 0.06-0.01 0.23-0.01 0.35 0 0.05-0.04 0.11-0.04 0.16 -0.01 0.12 0.02 0.27 0.07 0.37 0.1 0.2 0.27 0.41 0.44 0.54 0.19 0.15 0.37 0.57 0.61 0.63 0.18 0.04 0.38-0.1 0.54-0.14 0.18-0.04 0.4 0.01 0.57-0.05 0.22-0.08 0.13-0.34 0.29-0.45 0.1-0.07 0.29-0.01 0.41-0.05 0.2-0.07 0.34-0.26 0.38-0.46 0.02-0.08 0.01-0.14 0.04-0.22 0.04-0.1 0.11-0.16 0.09-0.29 -0.01-0.06-0.05-0.12-0.06-0.19 -0.02-0.11 0-0.22 0-0.34 0-0.2 0.02-0.38-0.08-0.55 -0.38-0.69-1.24-0.93-1.97-0.79 -0.18 0.03-0.29 0.13-0.44 0.21 -0.17 0.09-0.14 0.17-0.32 0.22 -0.08 0.03-0.22 0.12-0.21 0.22 0 0.12 0.01 0.05 0.01 0.17 -0.02 0.01-0.02 0-0.03-0.02"/>
    <path fill="#FFFFFF" d="M31.14-41.04c0.02 0.07 0.01 0.13-0.03 0.19 -0.05 0.1-0.11 0.06-0.16 0.13 -0.05 0.06-0.1 0.28-0.08 0.36 -0.17 0.06-0.01 0.23-0.01 0.35 0 0.05-0.04 0.11-0.04 0.16 -0.01 0.12 0.02 0.27 0.07 0.37 0.1 0.2 0.27 0.41 0.44 0.54 0.19 0.15 0.37 0.57 0.61 0.63 0.18 0.04 0.38-0.1 0.54-0.14 0.18-0.04 0.4 0.01 0.57-0.05 0.22-0.08 0.13-0.34 0.29-0.45 0.1-0.07 0.29-0.01 0.41-0.05 0.2-0.07 0.34-0.26 0.38-0.46 0.02-0.08 0.01-0.14 0.04-0.22 0.04-0.1 0.11-0.16 0.09-0.29 -0.01-0.06-0.05-0.12-0.06-0.19 -0.02-0.11 0-0.22 0-0.34 0-0.2 0.02-0.38-0.08-0.55 -0.38-0.69-1.24-0.93-1.97-0.79 -0.18 0.03-0.29 0.13-0.44 0.21 -0.17 0.09-0.14 0.17-0.32 0.22 -0.08 0.03-0.22 0.12-0.21 0.22 0 0.12 0.01 0.05 0.01 0.17 -0.02 0.01-0.02 0-0.03-0.02"/>
    <path fill="#FFFFFF" d="M23.48-41.04c0.02 0.07 0.01 0.13-0.03 0.19 -0.05 0.1-0.11 0.06-0.16 0.13 -0.05 0.06-0.1 0.28-0.08 0.36 -0.17 0.06-0.01 0.23-0.01 0.35 0 0.05-0.04 0.11-0.04 0.16 -0.01 0.12 0.02 0.27 0.07 0.37 0.1 0.2 0.27 0.41 0.44 0.54 0.19 0.15 0.37 0.57 0.61 0.63 0.18 0.04 0.38-0.1 0.54-0.14 0.18-0.04 0.4 0.01 0.57-0.05 0.22-0.08 0.13-0.34 0.29-0.45 0.1-0.07 0.29-0.01 0.41-0.05 0.2-0.07 0.34-0.26 0.38-0.46 0.02-0.08 0.01-0.14 0.04-0.22 0.04-0.1 0.11-0.16 0.09-0.29 -0.01-0.06-0.05-0.12-0.06-0.19 -0.02-0.11 0-0.22 0-0.34 0-0.2 0.02-0.38-0.08-0.55 -0.38-0.69-1.24-0.93-1.97-0.79 -0.18 0.03-0.29 0.13-0.44 0.21 -0.17 0.09-0.14 0.17-0.32 0.22 -0.08 0.03-0.22 0.12-0.21 0.22 0 0.12 0.01 0.05 0.01 0.17 -0.02 0.01-0.02 0-0.03-0.02"/>
    <path fill="#FFFFFF" d="M15.82-41.04c0.02 0.07 0.01 0.13-0.03 0.19 -0.05 0.1-0.11 0.06-0.16 0.13 -0.05 0.06-0.1 0.28-0.08 0.36 -0.17 0.06-0.01 0.23-0.01 0.35 0 0.05-0.04 0.11-0.04 0.16 -0.01 0.12 0.02 0.27 0.07 0.37 0.1 0.2 0.27 0.41 0.44 0.54 0.19 0.15 0.37 0.57 0.61 0.63 0.18 0.04 0.38-0.1 0.54-0.14 0.18-0.04 0.4 0.01 0.57-0.05 0.22-0.08 0.13-0.34 0.29-0.45 0.1-0.07 0.29-0.01 0.41-0.05 0.2-0.07 0.34-0.26 0.38-0.46 0.02-0.08 0.01-0.14 0.04-0.22 0.04-0.1 0.11-0.16 0.09-0.29 -0.01-0.06-0.05-0.12-0.06-0.19 -0.02-0.11 0-0.22 0-0.34 0-0.2 0.02-0.38-0.08-0.55 -0.38-0.69-1.24-0.93-1.97-0.79 -0.18 0.03-0.29 0.13-0.44 0.21 -0.17 0.09-0.14 0.17-0.32 0.22 -0.08 0.03-0.22 0.12-0.21 0.22 0 0.12 0.01 0.05 0.01 0.17 -0.02 0.01-0.02 0-0.03-0.02"/>
    <path fill="#FFFFFF" d="M8.16-41.04c0.02 0.07 0.01 0.13-0.03 0.19 -0.05 0.1-0.11 0.06-0.16 0.13 -0.05 0.06-0.1 0.28-0.08 0.36 -0.17 0.06-0.01 0.23-0.01 0.35 0 0.05-0.04 0.11-0.04 0.16 -0.01 0.12 0.02 0.27 0.07 0.37 0.1 0.2 0.27 0.41 0.44 0.54 0.19 0.15 0.37 0.57 0.61 0.63 0.18 0.04 0.38-0.1 0.54-0.14 0.18-0.04 0.4 0.01 0.57-0.05 0.22-0.08 0.13-0.34 0.29-0.45 0.1-0.07 0.29-0.01 0.41-0.05 0.2-0.07 0.34-0.26 0.38-0.46 0.02-0.08 0.01-0.14 0.04-0.22 0.04-0.1 0.11-0.16 0.09-0.29 -0.01-0.06-0.05-0.12-0.06-0.19 -0.02-0.11 0-0.22 0-0.34 0-0.2 0.02-0.38-0.08-0.55 -0.38-0.69-1.24-0.93-1.97-0.79 -0.18 0.03-0.29 0.13-0.44 0.21 -0.17 0.09-0.14 0.17-0.32 0.22 -0.08 0.03-0.22 0.12-0.21 0.22 0 0.12 0.01 0.05 0.01 0.17C8.15-41 8.15-41.02 8.14-41.04"/>
    <path fill="#FFFFFF" d="M0.5-41.04c0.02 0.07 0.01 0.13-0.03 0.19 -0.05 0.1-0.11 0.06-0.16 0.13 -0.05 0.06-0.1 0.28-0.08 0.36 -0.17 0.06-0.01 0.23-0.01 0.35 0 0.05-0.04 0.11-0.04 0.16 -0.01 0.12 0.02 0.27 0.07 0.37 0.1 0.2 0.27 0.41 0.44 0.54 0.19 0.15 0.37 0.57 0.61 0.63 0.18 0.04 0.38-0.1 0.54-0.14 0.18-0.04 0.4 0.01 0.57-0.05 0.22-0.08 0.13-0.34 0.29-0.45 0.1-0.07 0.29-0.01 0.41-0.05 0.2-0.07 0.34-0.26 0.38-0.46 0.02-0.08 0.01-0.14 0.04-0.22 0.04-0.1 0.11-0.16 0.09-0.29 -0.01-0.06-0.05-0.12-0.06-0.19 -0.02-0.11 0-0.22 0-0.34 0-0.2 0.02-0.38-0.08-0.55 -0.38-0.69-1.24-0.93-1.97-0.79 -0.18 0.03-0.29 0.13-0.44 0.21 -0.17 0.09-0.14 0.17-0.32 0.22 -0.08 0.03-0.22 0.12-0.21 0.22 0 0.12 0.01 0.05 0.01 0.17 -0.02 0.01-0.02 0-0.03-0.02"/>
    <path fill="#FFFFFF" d="M69.44-33.39c0.02 0.07 0.01 0.13-0.03 0.19 -0.05 0.1-0.11 0.06-0.16 0.13 -0.05 0.06-0.1 0.28-0.08 0.36 -0.17 0.06-0.01 0.23-0.01 0.35 0 0.05-0.04 0.11-0.04 0.16 -0.01 0.12 0.02 0.27 0.07 0.37 0.1 0.2 0.27 0.41 0.44 0.54 0.19 0.15 0.37 0.57 0.61 0.63 0.18 0.04 0.38-0.1 0.54-0.14 0.18-0.04 0.4 0.01 0.57-0.05 0.22-0.08 0.13-0.34 0.29-0.45 0.1-0.07 0.29-0.01 0.41-0.05 0.2-0.07 0.34-0.26 0.38-0.46 0.02-0.08 0.01-0.14 0.04-0.22 0.04-0.1 0.11-0.16 0.09-0.29 -0.01-0.06-0.05-0.12-0.06-0.19 -0.02-0.11 0-0.22 0-0.34 0-0.2 0.02-0.38-0.08-0.55 -0.38-0.69-1.24-0.93-1.97-0.79 -0.18 0.03-0.29 0.13-0.44 0.21 -0.17 0.09-0.14 0.17-0.32 0.22 -0.08 0.03-0.22 0.12-0.21 0.22 0 0.12 0.01 0.05 0.01 0.17 -0.02 0.01-0.02 0-0.03-0.02"/>
    <path fill="#FFFFFF" d="M61.78-33.39c0.02 0.07 0.01 0.13-0.03 0.19 -0.05 0.1-0.11 0.06-0.16 0.13 -0.05 0.06-0.1 0.28-0.08 0.36 -0.17 0.06-0.01 0.23-0.01 0.35 0 0.05-0.04 0.11-0.04 0.16 -0.01 0.12 0.02 0.27 0.07 0.37 0.1 0.2 0.27 0.41 0.44 0.54 0.19 0.15 0.37 0.57 0.61 0.63 0.18 0.04 0.38-0.1 0.54-0.14 0.18-0.04 0.4 0.01 0.57-0.05 0.22-0.08 0.13-0.34 0.29-0.45 0.1-0.07 0.29-0.01 0.41-0.05 0.2-0.07 0.34-0.26 0.38-0.46 0.02-0.08 0.01-0.14 0.04-0.22 0.04-0.1 0.11-0.16 0.09-0.29 -0.01-0.06-0.05-0.12-0.06-0.19 -0.02-0.11 0-0.22 0-0.34 0-0.2 0.02-0.38-0.08-0.55 -0.38-0.69-1.24-0.93-1.97-0.79 -0.18 0.03-0.29 0.13-0.44 0.21 -0.17 0.09-0.14 0.17-0.32 0.22 -0.08 0.03-0.22 0.12-0.21 0.22 0 0.12 0.01 0.05 0.01 0.17 -0.02 0.01-0.02 0-0.03-0.02"/>
    <path fill="#FFFFFF" d="M54.12-33.39c0.02 0.07 0.01 0.13-0.03 0.19 -0.05 0.1-0.11 0.06-0.16 0.13 -0.05 0.06-0.1 0.28-0.08 0.36 -0.17 0.06-0.01 0.23-0.01 0.35 0 0.05-0.04 0.11-0.04 0.16 -0.01 0.12 0.02 0.27 0.07 0.37 0.1 0.2 0.27 0.41 0.44 0.54 0.19 0.15 0.37 0.57 0.61 0.63 0.18 0.04 0.38-0.1 0.54-0.14 0.18-0.04 0.4 0.01 0.57-0.05 0.22-0.08 0.13-0.34 0.29-0.45 0.1-0.07 0.29-0.01 0.41-0.05 0.2-0.07 0.34-0.26 0.38-0.46 0.02-0.08 0.01-0.14 0.04-0.22 0.04-0.1 0.11-0.16 0.09-0.29 -0.01-0.06-0.05-0.12-0.06-0.19 -0.02-0.11 0-0.22 0-0.34 0-0.2 0.02-0.38-0.08-0.55 -0.38-0.69-1.24-0.93-1.97-0.79 -0.18 0.03-0.29 0.13-0.44 0.21 -0.17 0.09-0.14 0.17-0.32 0.22 -0.08 0.03-0.22 0.12-0.21 0.22 0 0.12 0.01 0.05 0.01 0.17 -0.02 0.01-0.02 0-0.03-0.02"/>
    <path fill="#FFFFFF" d="M46.46-33.39c0.02 0.07 0.01 0.13-0.03 0.19 -0.05 0.1-0.11 0.06-0.16 0.13 -0.05 0.06-0.1 0.28-0.08 0.36 -0.17 0.06-0.01 0.23-0.01 0.35 0 0.05-0.04 0.11-0.04 0.16 -0.01 0.12 0.02 0.27 0.07 0.37 0.1 0.2 0.27 0.41 0.44 0.54 0.19 0.15 0.37 0.57 0.61 0.63 0.18 0.04 0.38-0.1 0.54-0.14 0.18-0.04 0.4 0.01 0.57-0.05 0.22-0.08 0.13-0.34 0.29-0.45 0.1-0.07 0.29-0.01 0.41-0.05 0.2-0.07 0.34-0.26 0.38-0.46 0.02-0.08 0.01-0.14 0.04-0.22 0.04-0.1 0.11-0.16 0.09-0.29 -0.01-0.06-0.05-0.12-0.06-0.19 -0.02-0.11 0-0.22 0-0.34 0-0.2 0.02-0.38-0.08-0.55 -0.38-0.69-1.24-0.93-1.97-0.79 -0.18 0.03-0.29 0.13-0.44 0.21 -0.17 0.09-0.14 0.17-0.32 0.22 -0.08 0.03-0.22 0.12-0.21 0.22 0 0.12 0.01 0.05 0.01 0.17 -0.02 0.01-0.02 0-0.03-0.02"/>
    <path fill="#FFFFFF" d="M38.8-33.39c0.02 0.07 0.01 0.13-0.03 0.19 -0.05 0.1-0.11 0.06-0.16 0.13 -0.05 0.06-0.1 0.28-0.08 0.36 -0.17 0.06-0.01 0.23-0.01 0.35 0 0.05-0.04 0.11-0.04 0.16 -0.01 0.12 0.02 0.27 0.07 0.37 0.1 0.2 0.27 0.41 0.44 0.54 0.19 0.15 0.37 0.57 0.61 0.63 0.18 0.04 0.38-0.1 0.54-0.14 0.18-0.04 0.4 0.01 0.57-0.05 0.22-0.08 0.13-0.34 0.29-0.45 0.1-0.07 0.29-0.01 0.41-0.05 0.2-0.07 0.34-0.26 0.38-0.46 0.02-0.08 0.01-0.14 0.04-0.22 0.04-0.1 0.11-0.16 0.09-0.29 -0.01-0.06-0.05-0.12-0.06-0.19 -0.02-0.11 0-0.22 0-0.34 0-0.2 0.02-0.38-0.08-0.55 -0.38-0.69-1.24-0.93-1.97-0.79 -0.18 0.03-0.29 0.13-0.44 0.21 -0.17 0.09-0.14 0.17-0.32 0.22 -0.08 0.03-0.22 0.12-0.21 0.22 0 0.12 0.01 0.05 0.01 0.17 -0.02 0.01-0.02 0-0.03-0.02"/>
    <path fill="#FFFFFF" d="M31.14-33.39c0.02 0.07 0.01 0.13-0.03 0.19 -0.05 0.1-0.11 0.06-0.16 0.13 -0.05 0.06-0.1 0.28-0.08 0.36 -0.17 0.06-0.01 0.23-0.01 0.35 0 0.05-0.04 0.11-0.04 0.16 -0.01 0.12 0.02 0.27 0.07 0.37 0.1 0.2 0.27 0.41 0.44 0.54 0.19 0.15 0.37 0.57 0.61 0.63 0.18 0.04 0.38-0.1 0.54-0.14 0.18-0.04 0.4 0.01 0.57-0.05 0.22-0.08 0.13-0.34 0.29-0.45 0.1-0.07 0.29-0.01 0.41-0.05 0.2-0.07 0.34-0.26 0.38-0.46 0.02-0.08 0.01-0.14 0.04-0.22 0.04-0.1 0.11-0.16 0.09-0.29 -0.01-0.06-0.05-0.12-0.06-0.19 -0.02-0.11 0-0.22 0-0.34 0-0.2 0.02-0.38-0.08-0.55 -0.38-0.69-1.24-0.93-1.97-0.79 -0.18 0.03-0.29 0.13-0.44 0.21 -0.17 0.09-0.14 0.17-0.32 0.22 -0.08 0.03-0.22 0.12-0.21 0.22 0 0.12 0.01 0.05 0.01 0.17 -0.02 0.01-0.02 0-0.03-0.02"/>
    <path fill="#FFFFFF" d="M23.48-33.39c0.02 0.07 0.01 0.13-0.03 0.19 -0.05 0.1-0.11 0.06-0.16 0.13 -0.05 0.06-0.1 0.28-0.08 0.36 -0.17 0.06-0.01 0.23-0.01 0.35 0 0.05-0.04 0.11-0.04 0.16 -0.01 0.12 0.02 0.27 0.07 0.37 0.1 0.2 0.27 0.41 0.44 0.54 0.19 0.15 0.37 0.57 0.61 0.63 0.18 0.04 0.38-0.1 0.54-0.14 0.18-0.04 0.4 0.01 0.57-0.05 0.22-0.08 0.13-0.34 0.29-0.45 0.1-0.07 0.29-0.01 0.41-0.05 0.2-0.07 0.34-0.26 0.38-0.46 0.02-0.08 0.01-0.14 0.04-0.22 0.04-0.1 0.11-0.16 0.09-0.29 -0.01-0.06-0.05-0.12-0.06-0.19 -0.02-0.11 0-0.22 0-0.34 0-0.2 0.02-0.38-0.08-0.55 -0.38-0.69-1.24-0.93-1.97-0.79 -0.18 0.03-0.29 0.13-0.44 0.21 -0.17 0.09-0.14 0.17-0.32 0.22 -0.08 0.03-0.22 0.12-0.21 0.22 0 0.12 0.01 0.05 0.01 0.17 -0.02 0.01-0.02 0-0.03-0.02"/>
    <path fill="#FFFFFF" d="M15.82-33.39c0.02 0.07 0.01 0.13-0.03 0.19 -0.05 0.1-0.11 0.06-0.16 0.13 -0.05 0.06-0.1 0.28-0.08 0.36 -0.17 0.06-0.01 0.23-0.01 0.35 0 0.05-0.04 0.11-0.04 0.16 -0.01 0.12 0.02 0.27 0.07 0.37 0.1 0.2 0.27 0.41 0.44 0.54 0.19 0.15 0.37 0.57 0.61 0.63 0.18 0.04 0.38-0.1 0.54-0.14 0.18-0.04 0.4 0.01 0.57-0.05 0.22-0.08 0.13-0.34 0.29-0.45 0.1-0.07 0.29-0.01 0.41-0.05 0.2-0.07 0.34-0.26 0.38-0.46 0.02-0.08 0.01-0.14 0.04-0.22 0.04-0.1 0.11-0.16 0.09-0.29 -0.01-0.06-0.05-0.12-0.06-0.19 -0.02-0.11 0-0.22 0-0.34 0-0.2 0.02-0.38-0.08-0.55 -0.38-0.69-1.24-0.93-1.97-0.79 -0.18 0.03-0.29 0.13-0.44 0.21 -0.17 0.09-0.14 0.17-0.32 0.22 -0.08 0.03-0.22 0.12-0.21 0.22 0 0.12 0.01 0.05 0.01 0.17 -0.02 0.01-0.02 0-0.03-0.02"/>
    <path fill="#FFFFFF" d="M8.16-33.39c0.02 0.07 0.01 0.13-0.03 0.19 -0.05 0.1-0.11 0.06-0.16 0.13 -0.05 0.06-0.1 0.28-0.08 0.36 -0.17 0.06-0.01 0.23-0.01 0.35 0 0.05-0.04 0.11-0.04 0.16 -0.01 0.12 0.02 0.27 0.07 0.37 0.1 0.2 0.27 0.41 0.44 0.54 0.19 0.15 0.37 0.57 0.61 0.63 0.18 0.04 0.38-0.1 0.54-0.14 0.18-0.04 0.4 0.01 0.57-0.05 0.22-0.08 0.13-0.34 0.29-0.45 0.1-0.07 0.29-0.01 0.41-0.05 0.2-0.07 0.34-0.26 0.38-0.46 0.02-0.08 0.01-0.14 0.04-0.22 0.04-0.1 0.11-0.16 0.09-0.29 -0.01-0.06-0.05-0.12-0.06-0.19 -0.02-0.11 0-0.22 0-0.34 0-0.2 0.02-0.38-0.08-0.55 -0.38-0.69-1.24-0.93-1.97-0.79 -0.18 0.03-0.29 0.13-0.44 0.21 -0.17 0.09-0.14 0.17-0.32 0.22 -0.08 0.03-0.22 0.12-0.21 0.22 0 0.12 0.01 0.05 0.01 0.17 -0.02 0.01-0.02 0-0.03-0.02"/>
    <path fill="#FFFFFF" d="M0.5-33.39c0.02 0.07 0.01 0.13-0.03 0.19 -0.05 0.1-0.11 0.06-0.16 0.13 -0.05 0.06-0.1 0.28-0.08 0.36 -0.17 0.06-0.01 0.23-0.01 0.35 0 0.05-0.04 0.11-0.04 0.16 -0.01 0.12 0.02 0.27 0.07 0.37 0.1 0.2 0.27 0.41 0.44 0.54 0.19 0.15 0.37 0.57 0.61 0.63 0.18 0.04 0.38-0.1 0.54-0.14 0.18-0.04 0.4 0.01 0.57-0.05 0.22-0.08 0.13-0.34 0.29-0.45 0.1-0.07 0.29-0.01 0.41-0.05 0.2-0.07 0.34-0.26 0.38-0.46 0.02-0.08 0.01-0.14 0.04-0.22 0.04-0.1 0.11-0.16 0.09-0.29 -0.01-0.06-0.05-0.12-0.06-0.19 -0.02-0.11 0-0.22 0-0.34 0-0.2 0.02-0.38-0.08-0.55 -0.38-0.69-1.24-0.93-1.97-0.79 -0.18 0.03-0.29 0.13-0.44 0.21 -0.17 0.09-0.14 0.17-0.32 0.22 -0.08 0.03-0.22 0.12-0.21 0.22C0.5-33.42 0.5-33.48 0.51-33.36c-0.02 0.01-0.02 0-0.03-0.02"/>
    <path fill="#FFFFFF" d="M69.44-25.74c0.02 0.07 0.01 0.13-0.03 0.19 -0.05 0.1-0.11 0.06-0.16 0.13 -0.05 0.06-0.1 0.28-0.08 0.36 -0.17 0.06-0.01 0.23-0.01 0.35 0 0.05-0.04 0.11-0.04 0.16 -0.01 0.12 0.02 0.27 0.07 0.37 0.1 0.2 0.27 0.41 0.44 0.54 0.19 0.15 0.37 0.57 0.61 0.63 0.18 0.04 0.38-0.1 0.54-0.14 0.18-0.04 0.4 0.01 0.57-0.05 0.22-0.08 0.13-0.34 0.29-0.45 0.1-0.07 0.29-0.01 0.41-0.05 0.2-0.07 0.34-0.26 0.38-0.46 0.02-0.08 0.01-0.14 0.04-0.22 0.04-0.1 0.11-0.16 0.09-0.29 -0.01-0.06-0.05-0.12-0.06-0.19 -0.02-0.11 0-0.22 0-0.34 0-0.2 0.02-0.38-0.08-0.55 -0.38-0.69-1.24-0.93-1.97-0.79 -0.18 0.03-0.29 0.13-0.44 0.21 -0.17 0.09-0.14 0.17-0.32 0.22 -0.08 0.03-0.22 0.12-0.21 0.22 0 0.12 0.01 0.05 0.01 0.17 -0.02 0.01-0.02 0-0.03-0.02"/>
    <path fill="#FFFFFF" d="M61.78-25.74c0.02 0.07 0.01 0.13-0.03 0.19 -0.05 0.1-0.11 0.06-0.16 0.13 -0.05 0.06-0.1 0.28-0.08 0.36 -0.17 0.06-0.01 0.23-0.01 0.35 0 0.05-0.04 0.11-0.04 0.16 -0.01 0.12 0.02 0.27 0.07 0.37 0.1 0.2 0.27 0.41 0.44 0.54 0.19 0.15 0.37 0.57 0.61 0.63 0.18 0.04 0.38-0.1 0.54-0.14 0.18-0.04 0.4 0.01 0.57-0.05 0.22-0.08 0.13-0.34 0.29-0.45 0.1-0.07 0.29-0.01 0.41-0.05 0.2-0.07 0.34-0.26 0.38-0.46 0.02-0.08 0.01-0.14 0.04-0.22 0.04-0.1 0.11-0.16 0.09-0.29 -0.01-0.06-0.05-0.12-0.06-0.19 -0.02-0.11 0-0.22 0-0.34 0-0.2 0.02-0.38-0.08-0.55 -0.38-0.69-1.24-0.93-1.97-0.79 -0.18 0.03-0.29 0.13-0.44 0.21 -0.17 0.09-0.14 0.17-0.32 0.22 -0.08 0.03-0.22 0.12-0.21 0.22 0 0.12 0.01 0.05 0.01 0.17 -0.02 0.01-0.02 0-0.03-0.02"/>
    <path fill="#FFFFFF" d="M54.12-25.74c0.02 0.07 0.01 0.13-0.03 0.19 -0.05 0.1-0.11 0.06-0.16 0.13 -0.05 0.06-0.1 0.28-0.08 0.36 -0.17 0.06-0.01 0.23-0.01 0.35 0 0.05-0.04 0.11-0.04 0.16 -0.01 0.12 0.02 0.27 0.07 0.37 0.1 0.2 0.27 0.41 0.44 0.54 0.19 0.15 0.37 0.57 0.61 0.63 0.18 0.04 0.38-0.1 0.54-0.14 0.18-0.04 0.4 0.01 0.57-0.05 0.22-0.08 0.13-0.34 0.29-0.45 0.1-0.07 0.29-0.01 0.41-0.05 0.2-0.07 0.34-0.26 0.38-0.46 0.02-0.08 0.01-0.14 0.04-0.22 0.04-0.1 0.11-0.16 0.09-0.29 -0.01-0.06-0.05-0.12-0.06-0.19 -0.02-0.11 0-0.22 0-0.34 0-0.2 0.02-0.38-0.08-0.55 -0.38-0.69-1.24-0.93-1.97-0.79 -0.18 0.03-0.29 0.13-0.44 0.21 -0.17 0.09-0.14 0.17-0.32 0.22 -0.08 0.03-0.22 0.12-0.21 0.22 0 0.12 0.01 0.05 0.01 0.17 -0.02 0.01-0.02 0-0.03-0.02"/>
    <path fill="#FFFFFF" d="M46.46-25.74c0.02 0.07 0.01 0.13-0.03 0.19 -0.05 0.1-0.11 0.06-0.16 0.13 -0.05 0.06-0.1 0.28-0.08 0.36 -0.17 0.06-0.01 0.23-0.01 0.35 0 0.05-0.04 0.11-0.04 0.16 -0.01 0.12 0.02 0.27 0.07 0.37 0.1 0.2 0.27 0.41 0.44 0.54 0.19 0.15 0.37 0.57 0.61 0.63 0.18 0.04 0.38-0.1 0.54-0.14 0.18-0.04 0.4 0.01 0.57-0.05 0.22-0.08 0.13-0.34 0.29-0.45 0.1-0.07 0.29-0.01 0.41-0.05 0.2-0.07 0.34-0.26 0.38-0.46 0.02-0.08 0.01-0.14 0.04-0.22 0.04-0.1 0.11-0.16 0.09-0.29 -0.01-0.06-0.05-0.12-0.06-0.19 -0.02-0.11 0-0.22 0-0.34 0-0.2 0.02-0.38-0.08-0.55 -0.38-0.69-1.24-0.93-1.97-0.79 -0.18 0.03-0.29 0.13-0.44 0.21 -0.17 0.09-0.14 0.17-0.32 0.22 -0.08 0.03-0.22 0.12-0.21 0.22 0 0.12 0.01 0.05 0.01 0.17 -0.02 0.01-0.02 0-0.03-0.02"/>
    <path fill="#FFFFFF" d="M38.8-25.74c0.02 0.07 0.01 0.13-0.03 0.19 -0.05 0.1-0.11 0.06-0.16 0.13 -0.05 0.06-0.1 0.28-0.08 0.36 -0.17 0.06-0.01 0.23-0.01 0.35 0 0.05-0.04 0.11-0.04 0.16 -0.01 0.12 0.02 0.27 0.07 0.37 0.1 0.2 0.27 0.41 0.44 0.54 0.19 0.15 0.37 0.57 0.61 0.63 0.18 0.04 0.38-0.1 0.54-0.14 0.18-0.04 0.4 0.01 0.57-0.05 0.22-0.08 0.13-0.34 0.29-0.45 0.1-0.07 0.29-0.01 0.41-0.05 0.2-0.07 0.34-0.26 0.38-0.46 0.02-0.08 0.01-0.14 0.04-0.22 0.04-0.1 0.11-0.16 0.09-0.29 -0.01-0.06-0.05-0.12-0.06-0.19 -0.02-0.11 0-0.22 0-0.34 0-0.2 0.02-0.38-0.08-0.55 -0.38-0.69-1.24-0.93-1.97-0.79 -0.18 0.03-0.29 0.13-0.44 0.21 -0.17 0.09-0.14 0.17-0.32 0.22 -0.08 0.03-0.22 0.12-0.21 0.22 0 0.12 0.01 0.05 0.01 0.17 -0.02 0.01-0.02 0-0.03-0.02"/>
    <path fill="#FFFFFF" d="M31.14-25.74c0.02 0.07 0.01 0.13-0.03 0.19 -0.05 0.1-0.11 0.06-0.16 0.13 -0.05 0.06-0.1 0.28-0.08 0.36 -0.17 0.06-0.01 0.23-0.01 0.35 0 0.05-0.04 0.11-0.04 0.16 -0.01 0.12 0.02 0.27 0.07 0.37 0.1 0.2 0.27 0.41 0.44 0.54 0.19 0.15 0.37 0.57 0.61 0.63 0.18 0.04 0.38-0.1 0.54-0.14 0.18-0.04 0.4 0.01 0.57-0.05 0.22-0.08 0.13-0.34 0.29-0.45 0.1-0.07 0.29-0.01 0.41-0.05 0.2-0.07 0.34-0.26 0.38-0.46 0.02-0.08 0.01-0.14 0.04-0.22 0.04-0.1 0.11-0.16 0.09-0.29 -0.01-0.06-0.05-0.12-0.06-0.19 -0.02-0.11 0-0.22 0-0.34 0-0.2 0.02-0.38-0.08-0.55 -0.38-0.69-1.24-0.93-1.97-0.79 -0.18 0.03-0.29 0.13-0.44 0.21 -0.17 0.09-0.14 0.17-0.32 0.22 -0.08 0.03-0.22 0.12-0.21 0.22 0 0.12 0.01 0.05 0.01 0.17 -0.02 0.01-0.02 0-0.03-0.02"/>
    <path fill="#FFFFFF" d="M23.48-25.74c0.02 0.07 0.01 0.13-0.03 0.19 -0.05 0.1-0.11 0.06-0.16 0.13 -0.05 0.06-0.1 0.28-0.08 0.36 -0.17 0.06-0.01 0.23-0.01 0.35 0 0.05-0.04 0.11-0.04 0.16 -0.01 0.12 0.02 0.27 0.07 0.37 0.1 0.2 0.27 0.41 0.44 0.54 0.19 0.15 0.37 0.57 0.61 0.63 0.18 0.04 0.38-0.1 0.54-0.14 0.18-0.04 0.4 0.01 0.57-0.05 0.22-0.08 0.13-0.34 0.29-0.45 0.1-0.07 0.29-0.01 0.41-0.05 0.2-0.07 0.34-0.26 0.38-0.46 0.02-0.08 0.01-0.14 0.04-0.22 0.04-0.1 0.11-0.16 0.09-0.29 -0.01-0.06-0.05-0.12-0.06-0.19 -0.02-0.11 0-0.22 0-0.34 0-0.2 0.02-0.38-0.08-0.55 -0.38-0.69-1.24-0.93-1.97-0.79 -0.18 0.03-0.29 0.13-0.44 0.21 -0.17 0.09-0.14 0.17-0.32 0.22 -0.08 0.03-0.22 0.12-0.21 0.22 0 0.12 0.01 0.05 0.01 0.17 -0.02 0.01-0.02 0-0.03-0.02"/>
    <path fill="#FFFFFF" d="M15.82-25.74c0.02 0.07 0.01 0.13-0.03 0.19 -0.05 0.1-0.11 0.06-0.16 0.13 -0.05 0.06-0.1 0.28-0.08 0.36 -0.17 0.06-0.01 0.23-0.01 0.35 0 0.05-0.04 0.11-0.04 0.16 -0.01 0.12 0.02 0.27 0.07 0.37 0.1 0.2 0.27 0.41 0.44 0.54 0.19 0.15 0.37 0.57 0.61 0.63 0.18 0.04 0.38-0.1 0.54-0.14 0.18-0.04 0.4 0.01 0.57-0.05 0.22-0.08 0.13-0.34 0.29-0.45 0.1-0.07 0.29-0.01 0.41-0.05 0.2-0.07 0.34-0.26 0.38-0.46 0.02-0.08 0.01-0.14 0.04-0.22 0.04-0.1 0.11-0.16 0.09-0.29 -0.01-0.06-0.05-0.12-0.06-0.19 -0.02-0.11 0-0.22 0-0.34 0-0.2 0.02-0.38-0.08-0.55 -0.38-0.69-1.24-0.93-1.97-0.79 -0.18 0.03-0.29 0.13-0.44 0.21 -0.17 0.09-0.14 0.17-0.32 0.22 -0.08 0.03-0.22 0.12-0.21 0.22 0 0.12 0.01 0.05 0.01 0.17 -0.02 0.01-0.02 0-0.03-0.02"/>
    <path fill="#FFFFFF" d="M8.16-25.74c0.02 0.07 0.01 0.13-0.03 0.19 -0.05 0.1-0.11 0.06-0.16 0.13 -0.05 0.06-0.1 0.28-0.08 0.36 -0.17 0.06-0.01 0.23-0.01 0.35 0 0.05-0.04 0.11-0.04 0.16 -0.01 0.12 0.02 0.27 0.07 0.37 0.1 0.2 0.27 0.41 0.44 0.54 0.19 0.15 0.37 0.57 0.61 0.63 0.18 0.04 0.38-0.1 0.54-0.14 0.18-0.04 0.4 0.01 0.57-0.05 0.22-0.08 0.13-0.34 0.29-0.45 0.1-0.07 0.29-0.01 0.41-0.05 0.2-0.07 0.34-0.26 0.38-0.46 0.02-0.08 0.01-0.14 0.04-0.22 0.04-0.1 0.11-0.16 0.09-0.29 -0.01-0.06-0.05-0.12-0.06-0.19 -0.02-0.11 0-0.22 0-0.34 0-0.2 0.02-0.38-0.08-0.55 -0.38-0.69-1.24-0.93-1.97-0.79 -0.18 0.03-0.29 0.13-0.44 0.21 -0.17 0.09-0.14 0.17-0.32 0.22 -0.08 0.03-0.22 0.12-0.21 0.22 0 0.12 0.01 0.05 0.01 0.17 -0.02 0.01-0.02 0-0.03-0.02"/>
    <path fill="#FFFFFF" d="M0.5-25.74c0.02 0.07 0.01 0.13-0.03 0.19 -0.05 0.1-0.11 0.06-0.16 0.13 -0.05 0.06-0.1 0.28-0.08 0.36 -0.17 0.06-0.01 0.23-0.01 0.35 0 0.05-0.04 0.11-0.04 0.16 -0.01 0.12 0.02 0.27 0.07 0.37 0.1 0.2 0.27 0.41 0.44 0.54 0.19 0.15 0.37 0.57 0.61 0.63 0.18 0.04 0.38-0.1 0.54-0.14 0.18-0.04 0.4 0.01 0.57-0.05 0.22-0.08 0.13-0.34 0.29-0.45 0.1-0.07 0.29-0.01 0.41-0.05 0.2-0.07 0.34-0.26 0.38-0.46 0.02-0.08 0.01-0.14 0.04-0.22 0.04-0.1 0.11-0.16 0.09-0.29 -0.01-0.06-0.05-0.12-0.06-0.19 -0.02-0.11 0-0.22 0-0.34 0-0.2 0.02-0.38-0.08-0.55 -0.38-0.69-1.24-0.93-1.97-0.79 -0.18 0.03-0.29 0.13-0.44 0.21 -0.17 0.09-0.14 0.17-0.32 0.22 -0.08 0.03-0.22 0.12-0.21 0.22 0 0.12 0.01 0.05 0.01 0.17 -0.02 0.01-0.02 0-0.03-0.02"/>
    <path fill="#FFFFFF" d="M69.44-18.08c0.02 0.07 0.01 0.13-0.03 0.19 -0.05 0.1-0.11 0.06-0.16 0.13 -0.05 0.06-0.1 0.28-0.08 0.36 -0.17 0.06-0.01 0.23-0.01 0.35 0 0.05-0.04 0.11-0.04 0.16 -0.01 0.12 0.02 0.27 0.07 0.37 0.1 0.2 0.27 0.41 0.44 0.54 0.19 0.15 0.37 0.57 0.61 0.63 0.18 0.04 0.38-0.1 0.54-0.14 0.18-0.04 0.4 0.01 0.57-0.05 0.22-0.08 0.13-0.34 0.29-0.45 0.1-0.07 0.29-0.01 0.41-0.05 0.2-0.07 0.34-0.26 0.38-0.46 0.02-0.08 0.01-0.14 0.04-0.22 0.04-0.1 0.11-0.16 0.09-0.29 -0.01-0.06-0.05-0.12-0.06-0.19 -0.02-0.11 0-0.22 0-0.34 0-0.2 0.02-0.38-0.08-0.55 -0.38-0.69-1.24-0.93-1.97-0.79 -0.18 0.03-0.29 0.13-0.44 0.21 -0.17 0.09-0.14 0.17-0.32 0.22 -0.08 0.03-0.22 0.12-0.21 0.22 0 0.12 0.01 0.05 0.01 0.17 -0.02 0.01-0.02 0-0.03-0.02"/>
    <path fill="#FFFFFF" d="M61.78-18.08c0.02 0.07 0.01 0.13-0.03 0.19 -0.05 0.1-0.11 0.06-0.16 0.13 -0.05 0.06-0.1 0.28-0.08 0.36 -0.17 0.06-0.01 0.23-0.01 0.35 0 0.05-0.04 0.11-0.04 0.16 -0.01 0.12 0.02 0.27 0.07 0.37 0.1 0.2 0.27 0.41 0.44 0.54 0.19 0.15 0.37 0.57 0.61 0.63 0.18 0.04 0.38-0.1 0.54-0.14 0.18-0.04 0.4 0.01 0.57-0.05 0.22-0.08 0.13-0.34 0.29-0.45 0.1-0.07 0.29-0.01 0.41-0.05 0.2-0.07 0.34-0.26 0.38-0.46 0.02-0.08 0.01-0.14 0.04-0.22 0.04-0.1 0.11-0.16 0.09-0.29 -0.01-0.06-0.05-0.12-0.06-0.19 -0.02-0.11 0-0.22 0-0.34 0-0.2 0.02-0.38-0.08-0.55 -0.38-0.69-1.24-0.93-1.97-0.79 -0.18 0.03-0.29 0.13-0.44 0.21 -0.17 0.09-0.14 0.17-0.32 0.22 -0.08 0.03-0.22 0.12-0.21 0.22 0 0.12 0.01 0.05 0.01 0.17 -0.02 0.01-0.02 0-0.03-0.02"/>
    <path fill="#FFFFFF" d="M54.12-18.08c0.02 0.07 0.01 0.13-0.03 0.19 -0.05 0.1-0.11 0.06-0.16 0.13 -0.05 0.06-0.1 0.28-0.08 0.36 -0.17 0.06-0.01 0.23-0.01 0.35 0 0.05-0.04 0.11-0.04 0.16 -0.01 0.12 0.02 0.27 0.07 0.37 0.1 0.2 0.27 0.41 0.44 0.54 0.19 0.15 0.37 0.57 0.61 0.63 0.18 0.04 0.38-0.1 0.54-0.14 0.18-0.04 0.4 0.01 0.57-0.05 0.22-0.08 0.13-0.34 0.29-0.45 0.1-0.07 0.29-0.01 0.41-0.05 0.2-0.07 0.34-0.26 0.38-0.46 0.02-0.08 0.01-0.14 0.04-0.22 0.04-0.1 0.11-0.16 0.09-0.29 -0.01-0.06-0.05-0.12-0.06-0.19 -0.02-0.11 0-0.22 0-0.34 0-0.2 0.02-0.38-0.08-0.55 -0.38-0.69-1.24-0.93-1.97-0.79 -0.18 0.03-0.29 0.13-0.44 0.21 -0.17 0.09-0.14 0.17-0.32 0.22 -0.08 0.03-0.22 0.12-0.21 0.22 0 0.12 0.01 0.05 0.01 0.17 -0.02 0.01-0.02 0-0.03-0.02"/>
    <path fill="#FFFFFF" d="M46.46-18.08c0.02 0.07 0.01 0.13-0.03 0.19 -0.05 0.1-0.11 0.06-0.16 0.13 -0.05 0.06-0.1 0.28-0.08 0.36 -0.17 0.06-0.01 0.23-0.01 0.35 0 0.05-0.04 0.11-0.04 0.16 -0.01 0.12 0.02 0.27 0.07 0.37 0.1 0.2 0.27 0.41 0.44 0.54 0.19 0.15 0.37 0.57 0.61 0.63 0.18 0.04 0.38-0.1 0.54-0.14 0.18-0.04 0.4 0.01 0.57-0.05 0.22-0.08 0.13-0.34 0.29-0.45 0.1-0.07 0.29-0.01 0.41-0.05 0.2-0.07 0.34-0.26 0.38-0.46 0.02-0.08 0.01-0.14 0.04-0.22 0.04-0.1 0.11-0.16 0.09-0.29 -0.01-0.06-0.05-0.12-0.06-0.19 -0.02-0.11 0-0.22 0-0.34 0-0.2 0.02-0.38-0.08-0.55 -0.38-0.69-1.24-0.93-1.97-0.79 -0.18 0.03-0.29 0.13-0.44 0.21 -0.17 0.09-0.14 0.17-0.32 0.22 -0.08 0.03-0.22 0.12-0.21 0.22 0 0.12 0.01 0.05 0.01 0.17 -0.02 0.01-0.02 0-0.03-0.02"/>
    <path fill="#FFFFFF" d="M38.8-18.08c0.02 0.07 0.01 0.13-0.03 0.19 -0.05 0.1-0.11 0.06-0.16 0.13 -0.05 0.06-0.1 0.28-0.08 0.36 -0.17 0.06-0.01 0.23-0.01 0.35 0 0.05-0.04 0.11-0.04 0.16 -0.01 0.12 0.02 0.27 0.07 0.37 0.1 0.2 0.27 0.41 0.44 0.54 0.19 0.15 0.37 0.57 0.61 0.63 0.18 0.04 0.38-0.1 0.54-0.14 0.18-0.04 0.4 0.01 0.57-0.05 0.22-0.08 0.13-0.34 0.29-0.45 0.1-0.07 0.29-0.01 0.41-0.05 0.2-0.07 0.34-0.26 0.38-0.46 0.02-0.08 0.01-0.14 0.04-0.22 0.04-0.1 0.11-0.16 0.09-0.29 -0.01-0.06-0.05-0.12-0.06-0.19 -0.02-0.11 0-0.22 0-0.34 0-0.2 0.02-0.38-0.08-0.55 -0.38-0.69-1.24-0.93-1.97-0.79 -0.18 0.03-0.29 0.13-0.44 0.21 -0.17 0.09-0.14 0.17-0.32 0.22 -0.08 0.03-0.22 0.12-0.21 0.22 0 0.12 0.01 0.05 0.01 0.17 -0.02 0.01-0.02 0-0.03-0.02"/>
    <path fill="#FFFFFF" d="M31.14-18.08c0.02 0.07 0.01 0.13-0.03 0.19 -0.05 0.1-0.11 0.06-0.16 0.13 -0.05 0.06-0.1 0.28-0.08 0.36 -0.17 0.06-0.01 0.23-0.01 0.35 0 0.05-0.04 0.11-0.04 0.16 -0.01 0.12 0.02 0.27 0.07 0.37 0.1 0.2 0.27 0.41 0.44 0.54 0.19 0.15 0.37 0.57 0.61 0.63 0.18 0.04 0.38-0.1 0.54-0.14 0.18-0.04 0.4 0.01 0.57-0.05 0.22-0.08 0.13-0.34 0.29-0.45 0.1-0.07 0.29-0.01 0.41-0.05 0.2-0.07 0.34-0.26 0.38-0.46 0.02-0.08 0.01-0.14 0.04-0.22 0.04-0.1 0.11-0.16 0.09-0.29 -0.01-0.06-0.05-0.12-0.06-0.19 -0.02-0.11 0-0.22 0-0.34 0-0.2 0.02-0.38-0.08-0.55 -0.38-0.69-1.24-0.93-1.97-0.79 -0.18 0.03-0.29 0.13-0.44 0.21 -0.17 0.09-0.14 0.17-0.32 0.22 -0.08 0.03-0.22 0.12-0.21 0.22 0 0.12 0.01 0.05 0.01 0.17 -0.02 0.01-0.02 0-0.03-0.02"/>
    <path fill="#FFFFFF" d="M23.48-18.08c0.02 0.07 0.01 0.13-0.03 0.19 -0.05 0.1-0.11 0.06-0.16 0.13 -0.05 0.06-0.1 0.28-0.08 0.36 -0.17 0.06-0.01 0.23-0.01 0.35 0 0.05-0.04 0.11-0.04 0.16 -0.01 0.12 0.02 0.27 0.07 0.37 0.1 0.2 0.27 0.41 0.44 0.54 0.19 0.15 0.37 0.57 0.61 0.63 0.18 0.04 0.38-0.1 0.54-0.14 0.18-0.04 0.4 0.01 0.57-0.05 0.22-0.08 0.13-0.34 0.29-0.45 0.1-0.07 0.29-0.01 0.41-0.05 0.2-0.07 0.34-0.26 0.38-0.46 0.02-0.08 0.01-0.14 0.04-0.22 0.04-0.1 0.11-0.16 0.09-0.29 -0.01-0.06-0.05-0.12-0.06-0.19 -0.02-0.11 0-0.22 0-0.34 0-0.2 0.02-0.38-0.08-0.55 -0.38-0.69-1.24-0.93-1.97-0.79 -0.18 0.03-0.29 0.13-0.44 0.21 -0.17 0.09-0.14 0.17-0.32 0.22 -0.08 0.03-0.22 0.12-0.21 0.22 0 0.12 0.01 0.05 0.01 0.17 -0.02 0.01-0.02 0-0.03-0.02"/>
    <path fill="#FFFFFF" d="M15.82-18.08c0.02 0.07 0.01 0.13-0.03 0.19 -0.05 0.1-0.11 0.06-0.16 0.13 -0.05 0.06-0.1 0.28-0.08 0.36 -0.17 0.06-0.01 0.23-0.01 0.35 0 0.05-0.04 0.11-0.04 0.16 -0.01 0.12 0.02 0.27 0.07 0.37 0.1 0.2 0.27 0.41 0.44 0.54 0.19 0.15 0.37 0.57 0.61 0.63 0.18 0.04 0.38-0.1 0.54-0.14 0.18-0.04 0.4 0.01 0.57-0.05 0.22-0.08 0.13-0.34 0.29-0.45 0.1-0.07 0.29-0.01 0.41-0.05 0.2-0.07 0.34-0.26 0.38-0.46 0.02-0.08 0.01-0.14 0.04-0.22 0.04-0.1 0.11-0.16 0.09-0.29 -0.01-0.06-0.05-0.12-0.06-0.19 -0.02-0.11 0-0.22 0-0.34 0-0.2 0.02-0.38-0.08-0.55 -0.38-0.69-1.24-0.93-1.97-0.79 -0.18 0.03-0.29 0.13-0.44 0.21 -0.17 0.09-0.14 0.17-0.32 0.22 -0.08 0.03-0.22 0.12-0.21 0.22 0 0.12 0.01 0.05 0.01 0.17 -0.02 0.01-0.02 0-0.03-0.02"/>
    <path fill="#FFFFFF" d="M8.16-18.08c0.02 0.07 0.01 0.13-0.03 0.19 -0.05 0.1-0.11 0.06-0.16 0.13 -0.05 0.06-0.1 0.28-0.08 0.36 -0.17 0.06-0.01 0.23-0.01 0.35 0 0.05-0.04 0.11-0.04 0.16 -0.01 0.12 0.02 0.27 0.07 0.37 0.1 0.2 0.27 0.41 0.44 0.54 0.19 0.15 0.37 0.57 0.61 0.63 0.18 0.04 0.38-0.1 0.54-0.14 0.18-0.04 0.4 0.01 0.57-0.05 0.22-0.08 0.13-0.34 0.29-0.45 0.1-0.07 0.29-0.01 0.41-0.05 0.2-0.07 0.34-0.26 0.38-0.46 0.02-0.08 0.01-0.14 0.04-0.22 0.04-0.1 0.11-0.16 0.09-0.29 -0.01-0.06-0.05-0.12-0.06-0.19 -0.02-0.11 0-0.22 0-0.34 0-0.2 0.02-0.38-0.08-0.55 -0.38-0.69-1.24-0.93-1.97-0.79 -0.18 0.03-0.29 0.13-0.44 0.21 -0.17 0.09-0.14 0.17-0.32 0.22 -0.08 0.03-0.22 0.12-0.21 0.22 0 0.12 0.01 0.05 0.01 0.17 -0.02 0.01-0.02 0-0.03-0.02"/>
    <path fill="#FFFFFF" d="M0.5-18.08c0.02 0.07 0.01 0.13-0.03 0.19 -0.05 0.1-0.11 0.06-0.16 0.13 -0.05 0.06-0.1 0.28-0.08 0.36 -0.17 0.06-0.01 0.23-0.01 0.35 0 0.05-0.04 0.11-0.04 0.16 -0.01 0.12 0.02 0.27 0.07 0.37 0.1 0.2 0.27 0.41 0.44 0.54 0.19 0.15 0.37 0.57 0.61 0.63 0.18 0.04 0.38-0.1 0.54-0.14 0.18-0.04 0.4 0.01 0.57-0.05 0.22-0.08 0.13-0.34 0.29-0.45 0.1-0.07 0.29-0.01 0.41-0.05 0.2-0.07 0.34-0.26 0.38-0.46 0.02-0.08 0.01-0.14 0.04-0.22 0.04-0.1 0.11-0.16 0.09-0.29 -0.01-0.06-0.05-0.12-0.06-0.19 -0.02-0.11 0-0.22 0-0.34 0-0.2 0.02-0.38-0.08-0.55 -0.38-0.69-1.24-0.93-1.97-0.79 -0.18 0.03-0.29 0.13-0.44 0.21 -0.17 0.09-0.14 0.17-0.32 0.22 -0.08 0.03-0.22 0.12-0.21 0.22C0.5-18.11 0.5-18.17 0.51-18.06c-0.02 0.01-0.02 0-0.03-0.02"/>
    <path fill="#FFFFFF" d="M69.44-10.43c0.02 0.07 0.01 0.13-0.03 0.19 -0.05 0.1-0.11 0.06-0.16 0.13 -0.05 0.06-0.1 0.28-0.08 0.36C69-9.69 69.16-9.52 69.15-9.4c0 0.05-0.04 0.11-0.04 0.16 -0.01 0.12 0.02 0.27 0.07 0.37 0.1 0.2 0.27 0.41 0.44 0.54 0.19 0.15 0.37 0.57 0.61 0.63 0.18 0.04 0.38-0.1 0.54-0.14 0.18-0.04 0.4 0.01 0.57-0.05 0.22-0.08 0.13-0.34 0.29-0.45 0.1-0.07 0.29-0.01 0.41-0.05 0.2-0.07 0.34-0.26 0.38-0.46 0.02-0.08 0.01-0.14 0.04-0.22 0.04-0.1 0.11-0.16 0.09-0.29 -0.01-0.06-0.05-0.12-0.06-0.19 -0.02-0.11 0-0.22 0-0.34 0-0.2 0.02-0.38-0.08-0.55 -0.38-0.69-1.24-0.93-1.97-0.79 -0.18 0.03-0.29 0.13-0.44 0.21 -0.17 0.09-0.14 0.17-0.32 0.22 -0.08 0.03-0.22 0.12-0.21 0.22 0 0.12 0.01 0.05 0.01 0.17 -0.02 0.01-0.02 0-0.03-0.02"/>
    <path fill="#FFFFFF" d="M61.78-10.43c0.02 0.07 0.01 0.13-0.03 0.19 -0.05 0.1-0.11 0.06-0.16 0.13 -0.05 0.06-0.1 0.28-0.08 0.36 -0.17 0.06-0.01 0.23-0.01 0.35 0 0.05-0.04 0.11-0.04 0.16 -0.01 0.12 0.02 0.27 0.07 0.37 0.1 0.2 0.27 0.41 0.44 0.54 0.19 0.15 0.37 0.57 0.61 0.63 0.18 0.04 0.38-0.1 0.54-0.14 0.18-0.04 0.4 0.01 0.57-0.05 0.22-0.08 0.13-0.34 0.29-0.45 0.1-0.07 0.29-0.01 0.41-0.05 0.2-0.07 0.34-0.26 0.38-0.46 0.02-0.08 0.01-0.14 0.04-0.22 0.04-0.1 0.11-0.16 0.09-0.29 -0.01-0.06-0.05-0.12-0.06-0.19 -0.02-0.11 0-0.22 0-0.34 0-0.2 0.02-0.38-0.08-0.55 -0.38-0.69-1.24-0.93-1.97-0.79 -0.18 0.03-0.29 0.13-0.44 0.21 -0.17 0.09-0.14 0.17-0.32 0.22 -0.08 0.03-0.22 0.12-0.21 0.22 0 0.12 0.01 0.05 0.01 0.17 -0.02 0.01-0.02 0-0.03-0.02"/>
    <path fill="#FFFFFF" d="M54.12-10.43c0.02 0.07 0.01 0.13-0.03 0.19 -0.05 0.1-0.11 0.06-0.16 0.13 -0.05 0.06-0.1 0.28-0.08 0.36 -0.17 0.06-0.01 0.23-0.01 0.35 0 0.05-0.04 0.11-0.04 0.16 -0.01 0.12 0.02 0.27 0.07 0.37 0.1 0.2 0.27 0.41 0.44 0.54 0.19 0.15 0.37 0.57 0.61 0.63 0.18 0.04 0.38-0.1 0.54-0.14 0.18-0.04 0.4 0.01 0.57-0.05 0.22-0.08 0.13-0.34 0.29-0.45 0.1-0.07 0.29-0.01 0.41-0.05 0.2-0.07 0.34-0.26 0.38-0.46 0.02-0.08 0.01-0.14 0.04-0.22 0.04-0.1 0.11-0.16 0.09-0.29 -0.01-0.06-0.05-0.12-0.06-0.19 -0.02-0.11 0-0.22 0-0.34 0-0.2 0.02-0.38-0.08-0.55 -0.38-0.69-1.24-0.93-1.97-0.79 -0.18 0.03-0.29 0.13-0.44 0.21 -0.17 0.09-0.14 0.17-0.32 0.22 -0.08 0.03-0.22 0.12-0.21 0.22 0 0.12 0.01 0.05 0.01 0.17 -0.02 0.01-0.02 0-0.03-0.02"/>
    <path fill="#FFFFFF" d="M46.46-10.43c0.02 0.07 0.01 0.13-0.03 0.19 -0.05 0.1-0.11 0.06-0.16 0.13 -0.05 0.06-0.1 0.28-0.08 0.36 -0.17 0.06-0.01 0.23-0.01 0.35 0 0.05-0.04 0.11-0.04 0.16 -0.01 0.12 0.02 0.27 0.07 0.37 0.1 0.2 0.27 0.41 0.44 0.54 0.19 0.15 0.37 0.57 0.61 0.63 0.18 0.04 0.38-0.1 0.54-0.14 0.18-0.04 0.4 0.01 0.57-0.05 0.22-0.08 0.13-0.34 0.29-0.45 0.1-0.07 0.29-0.01 0.41-0.05 0.2-0.07 0.34-0.26 0.38-0.46 0.02-0.08 0.01-0.14 0.04-0.22 0.04-0.1 0.11-0.16 0.09-0.29 -0.01-0.06-0.05-0.12-0.06-0.19 -0.02-0.11 0-0.22 0-0.34 0-0.2 0.02-0.38-0.08-0.55 -0.38-0.69-1.24-0.93-1.97-0.79 -0.18 0.03-0.29 0.13-0.44 0.21 -0.17 0.09-0.14 0.17-0.32 0.22 -0.08 0.03-0.22 0.12-0.21 0.22 0 0.12 0.01 0.05 0.01 0.17 -0.02 0.01-0.02 0-0.03-0.02"/>
    <path fill="#FFFFFF" d="M38.8-10.43c0.02 0.07 0.01 0.13-0.03 0.19 -0.05 0.1-0.11 0.06-0.16 0.13 -0.05 0.06-0.1 0.28-0.08 0.36 -0.17 0.06-0.01 0.23-0.01 0.35 0 0.05-0.04 0.11-0.04 0.16 -0.01 0.12 0.02 0.27 0.07 0.37 0.1 0.2 0.27 0.41 0.44 0.54 0.19 0.15 0.37 0.57 0.61 0.63 0.18 0.04 0.38-0.1 0.54-0.14 0.18-0.04 0.4 0.01 0.57-0.05 0.22-0.08 0.13-0.34 0.29-0.45 0.1-0.07 0.29-0.01 0.41-0.05 0.2-0.07 0.34-0.26 0.38-0.46 0.02-0.08 0.01-0.14 0.04-0.22 0.04-0.1 0.11-0.16 0.09-0.29 -0.01-0.06-0.05-0.12-0.06-0.19 -0.02-0.11 0-0.22 0-0.34 0-0.2 0.02-0.38-0.08-0.55 -0.38-0.69-1.24-0.93-1.97-0.79 -0.18 0.03-0.29 0.13-0.44 0.21 -0.17 0.09-0.14 0.17-0.32 0.22 -0.08 0.03-0.22 0.12-0.21 0.22 0 0.12 0.01 0.05 0.01 0.17 -0.02 0.01-0.02 0-0.03-0.02"/>
    <path fill="#FFFFFF" d="M31.14-10.43c0.02 0.07 0.01 0.13-0.03 0.19 -0.05 0.1-0.11 0.06-0.16 0.13 -0.05 0.06-0.1 0.28-0.08 0.36 -0.17 0.06-0.01 0.23-0.01 0.35 0 0.05-0.04 0.11-0.04 0.16 -0.01 0.12 0.02 0.27 0.07 0.37 0.1 0.2 0.27 0.41 0.44 0.54 0.19 0.15 0.37 0.57 0.61 0.63 0.18 0.04 0.38-0.1 0.54-0.14 0.18-0.04 0.4 0.01 0.57-0.05 0.22-0.08 0.13-0.34 0.29-0.45 0.1-0.07 0.29-0.01 0.41-0.05 0.2-0.07 0.34-0.26 0.38-0.46 0.02-0.08 0.01-0.14 0.04-0.22 0.04-0.1 0.11-0.16 0.09-0.29 -0.01-0.06-0.05-0.12-0.06-0.19 -0.02-0.11 0-0.22 0-0.34 0-0.2 0.02-0.38-0.08-0.55 -0.38-0.69-1.24-0.93-1.97-0.79 -0.18 0.03-0.29 0.13-0.44 0.21 -0.17 0.09-0.14 0.17-0.32 0.22 -0.08 0.03-0.22 0.12-0.21 0.22 0 0.12 0.01 0.05 0.01 0.17 -0.02 0.01-0.02 0-0.03-0.02"/>
    <path fill="#FFFFFF" d="M23.48-10.43c0.02 0.07 0.01 0.13-0.03 0.19 -0.05 0.1-0.11 0.06-0.16 0.13 -0.05 0.06-0.1 0.28-0.08 0.36 -0.17 0.06-0.01 0.23-0.01 0.35 0 0.05-0.04 0.11-0.04 0.16 -0.01 0.12 0.02 0.27 0.07 0.37 0.1 0.2 0.27 0.41 0.44 0.54 0.19 0.15 0.37 0.57 0.61 0.63 0.18 0.04 0.38-0.1 0.54-0.14 0.18-0.04 0.4 0.01 0.57-0.05 0.22-0.08 0.13-0.34 0.29-0.45 0.1-0.07 0.29-0.01 0.41-0.05 0.2-0.07 0.34-0.26 0.38-0.46 0.02-0.08 0.01-0.14 0.04-0.22 0.04-0.1 0.11-0.16 0.09-0.29 -0.01-0.06-0.05-0.12-0.06-0.19 -0.02-0.11 0-0.22 0-0.34 0-0.2 0.02-0.38-0.08-0.55 -0.38-0.69-1.24-0.93-1.97-0.79 -0.18 0.03-0.29 0.13-0.44 0.21 -0.17 0.09-0.14 0.17-0.32 0.22 -0.08 0.03-0.22 0.12-0.21 0.22 0 0.12 0.01 0.05 0.01 0.17 -0.02 0.01-0.02 0-0.03-0.02"/>
    <path fill="#FFFFFF" d="M15.82-10.43c0.02 0.07 0.01 0.13-0.03 0.19 -0.05 0.1-0.11 0.06-0.16 0.13 -0.05 0.06-0.1 0.28-0.08 0.36 -0.17 0.06-0.01 0.23-0.01 0.35 0 0.05-0.04 0.11-0.04 0.16 -0.01 0.12 0.02 0.27 0.07 0.37 0.1 0.2 0.27 0.41 0.44 0.54 0.19 0.15 0.37 0.57 0.61 0.63 0.18 0.04 0.38-0.1 0.54-0.14 0.18-0.04 0.4 0.01 0.57-0.05C17.93-7.97 17.84-8.23 18-8.34c0.1-0.07 0.29-0.01 0.41-0.05 0.2-0.07 0.34-0.26 0.38-0.46 0.02-0.08 0.01-0.14 0.04-0.22 0.04-0.1 0.11-0.16 0.09-0.29 -0.01-0.06-0.05-0.12-0.06-0.19 -0.02-0.11 0-0.22 0-0.34 0-0.2 0.02-0.38-0.08-0.55 -0.38-0.69-1.24-0.93-1.97-0.79 -0.18 0.03-0.29 0.13-0.44 0.21 -0.17 0.09-0.14 0.17-0.32 0.22 -0.08 0.03-0.22 0.12-0.21 0.22 0 0.12 0.01 0.05 0.01 0.17 -0.02 0.01-0.02 0-0.03-0.02"/>
    <path fill="#FFFFFF" d="M8.16-10.43c0.02 0.07 0.01 0.13-0.03 0.19 -0.05 0.1-0.11 0.06-0.16 0.13C7.92-10.05 7.87-9.84 7.89-9.75 7.72-9.69 7.88-9.52 7.87-9.4 7.87-9.35 7.83-9.29 7.83-9.24c-0.01 0.12 0.02 0.27 0.07 0.37 0.1 0.2 0.27 0.41 0.44 0.54 0.19 0.15 0.37 0.57 0.61 0.63C9.11-7.65 9.32-7.8 9.48-7.84c0.18-0.04 0.4 0.01 0.57-0.05 0.22-0.08 0.13-0.34 0.29-0.45 0.1-0.07 0.29-0.01 0.41-0.05 0.2-0.07 0.34-0.26 0.38-0.46 0.02-0.08 0.01-0.14 0.04-0.22 0.04-0.1 0.11-0.16 0.09-0.29 -0.01-0.06-0.05-0.12-0.06-0.19 -0.02-0.11 0-0.22 0-0.34 0-0.2 0.02-0.38-0.08-0.55 -0.38-0.69-1.24-0.93-1.97-0.79 -0.18 0.03-0.29 0.13-0.44 0.21 -0.17 0.09-0.14 0.17-0.32 0.22 -0.08 0.03-0.22 0.12-0.21 0.22 0 0.12 0.01 0.05 0.01 0.17 -0.02 0.01-0.02 0-0.03-0.02"/>
    <path fill="#FFFFFF" d="M0.5-10.43c0.02 0.07 0.01 0.13-0.03 0.19 -0.05 0.1-0.11 0.06-0.16 0.13C0.25-10.05 0.21-9.84 0.23-9.75 0.06-9.69 0.22-9.52 0.21-9.4c0 0.05-0.04 0.11-0.04 0.16 -0.01 0.12 0.02 0.27 0.07 0.37C0.33-8.67 0.5-8.46 0.67-8.32c0.19 0.15 0.37 0.57 0.61 0.63C1.45-7.65 1.66-7.8 1.82-7.84 2-7.88 2.22-7.83 2.39-7.89c0.22-0.08 0.13-0.34 0.29-0.45 0.1-0.07 0.29-0.01 0.41-0.05 0.2-0.07 0.34-0.26 0.38-0.46C3.48-8.93 3.47-8.99 3.5-9.07c0.04-0.1 0.11-0.16 0.09-0.29 -0.01-0.06-0.05-0.12-0.06-0.19 -0.02-0.11 0-0.22 0-0.34 0-0.2 0.02-0.38-0.08-0.55 -0.38-0.69-1.24-0.93-1.97-0.79 -0.18 0.03-0.29 0.13-0.44 0.21 -0.17 0.09-0.14 0.17-0.32 0.22 -0.08 0.03-0.22 0.12-0.21 0.22 0 0.12 0.01 0.05 0.01 0.17 -0.02 0.01-0.02 0-0.03-0.02"/>
    <path fill="#FFFFFF" d="M69.44-2.78c0.02 0.07 0.01 0.13-0.03 0.19C69.36-2.49 69.3-2.52 69.25-2.46c-0.05 0.06-0.1 0.28-0.08 0.36C69-2.04 69.16-1.87 69.15-1.75c0 0.05-0.04 0.11-0.04 0.16 -0.01 0.12 0.02 0.27 0.07 0.37 0.1 0.2 0.27 0.41 0.44 0.54 0.19 0.15 0.37 0.57 0.61 0.63C70.4 0 70.6-0.15 70.76-0.18c0.18-0.04 0.4 0.01 0.57-0.05 0.22-0.08 0.13-0.34 0.29-0.45 0.1-0.07 0.29-0.01 0.41-0.05 0.2-0.07 0.34-0.26 0.38-0.46 0.02-0.08 0.01-0.14 0.04-0.22 0.04-0.1 0.11-0.16 0.09-0.29 -0.01-0.06-0.05-0.12-0.06-0.19 -0.02-0.11 0-0.22 0-0.34 0-0.2 0.02-0.38-0.08-0.55 -0.38-0.69-1.24-0.93-1.97-0.79 -0.18 0.03-0.29 0.13-0.44 0.21 -0.17 0.09-0.14 0.17-0.32 0.22 -0.08 0.03-0.21 0.12-0.21 0.22 0 0.12 0.01 0.05 0.01 0.17 -0.02 0.01-0.02 0-0.03-0.02"/>
    <path fill="#FFFFFF" d="M61.78-2.78c0.02 0.07 0.01 0.13-0.03 0.19C61.7-2.49 61.64-2.52 61.59-2.46c-0.05 0.06-0.1 0.28-0.08 0.36 -0.17 0.06-0.01 0.23-0.01 0.35 0 0.05-0.04 0.11-0.04 0.16 -0.01 0.12 0.02 0.27 0.07 0.37 0.1 0.2 0.27 0.41 0.44 0.54 0.19 0.15 0.37 0.57 0.61 0.63C62.74 0 62.94-0.15 63.1-0.18c0.18-0.04 0.4 0.01 0.57-0.05 0.22-0.08 0.13-0.34 0.29-0.45 0.1-0.07 0.29-0.01 0.41-0.05 0.2-0.07 0.34-0.26 0.38-0.46 0.02-0.08 0.01-0.14 0.04-0.22 0.04-0.1 0.11-0.16 0.09-0.29 -0.01-0.06-0.05-0.12-0.06-0.19 -0.02-0.11 0-0.22 0-0.34 0-0.2 0.02-0.38-0.08-0.55 -0.38-0.69-1.24-0.93-1.97-0.79 -0.18 0.03-0.29 0.13-0.44 0.21 -0.17 0.09-0.14 0.17-0.32 0.22C61.92-3.12 61.78-3.02 61.78-2.92c0 0.12 0.01 0.05 0.01 0.17 -0.02 0.01-0.02 0-0.03-0.02"/>
    <path fill="#FFFFFF" d="M54.12-2.78c0.02 0.07 0.01 0.13-0.03 0.19C54.04-2.49 53.98-2.52 53.93-2.46c-0.05 0.06-0.1 0.28-0.08 0.36 -0.17 0.06-0.01 0.23-0.01 0.35 0 0.05-0.04 0.11-0.04 0.16 -0.01 0.12 0.02 0.27 0.07 0.37 0.1 0.2 0.27 0.41 0.44 0.54 0.19 0.15 0.37 0.57 0.61 0.63C55.08 0 55.28-0.15 55.44-0.18c0.18-0.04 0.4 0.01 0.57-0.05 0.22-0.08 0.13-0.34 0.29-0.45 0.1-0.07 0.29-0.01 0.41-0.05 0.2-0.07 0.34-0.26 0.38-0.46 0.02-0.08 0.01-0.14 0.04-0.22 0.04-0.1 0.11-0.16 0.09-0.29 -0.01-0.06-0.05-0.12-0.06-0.19 -0.02-0.11 0-0.22 0-0.34 0-0.2 0.02-0.38-0.08-0.55 -0.38-0.69-1.24-0.93-1.97-0.79 -0.18 0.03-0.29 0.13-0.44 0.21 -0.17 0.09-0.14 0.17-0.32 0.22C54.26-3.12 54.12-3.02 54.12-2.92c0 0.12 0.01 0.05 0.01 0.17 -0.02 0.01-0.02 0-0.03-0.02"/>
    <path fill="#FFFFFF" d="M46.46-2.78c0.02 0.07 0.01 0.13-0.03 0.19 -0.05 0.1-0.11 0.06-0.16 0.13 -0.05 0.06-0.1 0.28-0.08 0.36 -0.17 0.06-0.01 0.23-0.01 0.35 0 0.05-0.04 0.11-0.04 0.16 -0.01 0.12 0.02 0.27 0.07 0.37 0.1 0.2 0.27 0.41 0.44 0.54 0.19 0.15 0.37 0.57 0.61 0.63C47.42 0 47.62-0.15 47.78-0.18c0.18-0.04 0.4 0.01 0.57-0.05 0.22-0.08 0.13-0.34 0.29-0.45 0.1-0.07 0.29-0.01 0.41-0.05 0.2-0.07 0.34-0.26 0.38-0.46 0.02-0.08 0.01-0.14 0.04-0.22 0.04-0.1 0.11-0.16 0.09-0.29 -0.01-0.06-0.05-0.12-0.06-0.19 -0.02-0.11 0-0.22 0-0.34 0-0.2 0.02-0.38-0.08-0.55 -0.38-0.69-1.24-0.93-1.97-0.79 -0.18 0.03-0.29 0.13-0.44 0.21 -0.17 0.09-0.14 0.17-0.32 0.22C46.59-3.12 46.46-3.02 46.46-2.92c0 0.12 0.01 0.05 0.01 0.17 -0.02 0.01-0.02 0-0.03-0.02"/>
    <path fill="#FFFFFF" d="M38.8-2.78c0.02 0.07 0.01 0.13-0.03 0.19 -0.05 0.1-0.11 0.06-0.16 0.13 -0.05 0.06-0.1 0.28-0.08 0.36 -0.17 0.06-0.01 0.23-0.01 0.35 0 0.05-0.04 0.11-0.04 0.16 -0.01 0.12 0.02 0.27 0.07 0.37 0.1 0.2 0.27 0.41 0.44 0.54 0.19 0.15 0.37 0.57 0.61 0.63C39.76 0 39.96-0.15 40.12-0.18c0.18-0.04 0.4 0.01 0.57-0.05 0.22-0.08 0.13-0.34 0.29-0.45 0.1-0.07 0.29-0.01 0.41-0.05 0.2-0.07 0.34-0.26 0.38-0.46 0.02-0.08 0.01-0.14 0.04-0.22 0.04-0.1 0.11-0.16 0.09-0.29 -0.01-0.06-0.05-0.12-0.06-0.19 -0.02-0.11 0-0.22 0-0.34 0-0.2 0.02-0.38-0.08-0.55 -0.38-0.69-1.24-0.93-1.97-0.79 -0.18 0.03-0.29 0.13-0.44 0.21 -0.17 0.09-0.14 0.17-0.32 0.22C38.93-3.12 38.8-3.02 38.8-2.92c0 0.12 0.01 0.05 0.01 0.17 -0.02 0.01-0.02 0-0.03-0.02"/>
    <path fill="#FFFFFF" d="M31.14-2.78c0.02 0.07 0.01 0.13-0.03 0.19 -0.05 0.1-0.11 0.06-0.16 0.13 -0.05 0.06-0.1 0.28-0.08 0.36 -0.17 0.06-0.01 0.23-0.01 0.35 0 0.05-0.04 0.11-0.04 0.16 -0.01 0.12 0.02 0.27 0.07 0.37 0.1 0.2 0.27 0.41 0.44 0.54 0.19 0.15 0.37 0.57 0.61 0.63C32.1 0 32.3-0.15 32.46-0.18c0.18-0.04 0.4 0.01 0.57-0.05 0.22-0.08 0.13-0.34 0.29-0.45 0.1-0.07 0.29-0.01 0.41-0.05 0.2-0.07 0.34-0.26 0.38-0.46 0.02-0.08 0.01-0.14 0.04-0.22 0.04-0.1 0.11-0.16 0.09-0.29 -0.01-0.06-0.05-0.12-0.06-0.19 -0.02-0.11 0-0.22 0-0.34 0-0.2 0.02-0.38-0.08-0.55 -0.38-0.69-1.24-0.93-1.97-0.79 -0.18 0.03-0.29 0.13-0.44 0.21 -0.17 0.09-0.14 0.17-0.32 0.22C31.27-3.12 31.14-3.02 31.14-2.92c0 0.12 0.01 0.05 0.01 0.17 -0.02 0.01-0.02 0-0.03-0.02"/>
    <path fill="#FFFFFF" d="M23.48-2.78c0.02 0.07 0.01 0.13-0.03 0.19 -0.05 0.1-0.11 0.06-0.16 0.13 -0.05 0.06-0.1 0.28-0.08 0.36 -0.17 0.06-0.01 0.23-0.01 0.35 0 0.05-0.04 0.11-0.04 0.16 -0.01 0.12 0.02 0.27 0.07 0.37 0.1 0.2 0.27 0.41 0.44 0.54 0.19 0.15 0.37 0.57 0.61 0.63C24.44 0 24.64-0.15 24.8-0.18c0.18-0.04 0.4 0.01 0.57-0.05 0.22-0.08 0.13-0.34 0.29-0.45 0.1-0.07 0.29-0.01 0.41-0.05 0.2-0.07 0.34-0.26 0.38-0.46 0.02-0.08 0.01-0.14 0.04-0.22 0.04-0.1 0.11-0.16 0.09-0.29 -0.01-0.06-0.05-0.12-0.06-0.19 -0.02-0.11 0-0.22 0-0.34 0-0.2 0.02-0.38-0.08-0.55 -0.38-0.69-1.24-0.93-1.97-0.79 -0.18 0.03-0.29 0.13-0.44 0.21 -0.17 0.09-0.14 0.17-0.32 0.22 -0.08 0.03-0.22 0.12-0.21 0.22 0 0.12 0.01 0.05 0.01 0.17 -0.02 0.01-0.02 0-0.03-0.02"/>
    <path fill="#FFFFFF" d="M15.82-2.78c0.02 0.07 0.01 0.13-0.03 0.19 -0.05 0.1-0.11 0.06-0.16 0.13 -0.05 0.06-0.1 0.28-0.08 0.36 -0.17 0.06-0.01 0.23-0.01 0.35 0 0.05-0.04 0.11-0.04 0.16 -0.01 0.12 0.02 0.27 0.07 0.37 0.1 0.2 0.27 0.41 0.44 0.54 0.19 0.15 0.37 0.57 0.61 0.63C16.77 0 16.98-0.15 17.14-0.18c0.18-0.04 0.4 0.01 0.57-0.05 0.22-0.08 0.13-0.34 0.29-0.45 0.1-0.07 0.29-0.01 0.41-0.05 0.2-0.07 0.34-0.26 0.38-0.46 0.02-0.08 0.01-0.14 0.04-0.22 0.04-0.1 0.11-0.16 0.09-0.29 -0.01-0.06-0.05-0.12-0.06-0.19 -0.02-0.11 0-0.22 0-0.34 0-0.2 0.02-0.38-0.08-0.55 -0.38-0.69-1.24-0.93-1.97-0.79 -0.18 0.03-0.29 0.13-0.44 0.21 -0.17 0.09-0.14 0.17-0.32 0.22 -0.08 0.03-0.22 0.12-0.21 0.22 0 0.12 0.01 0.05 0.01 0.17C15.81-2.74 15.81-2.76 15.8-2.78"/>
    <path fill="#FFFFFF" d="M8.16-2.78c0.02 0.07 0.01 0.13-0.03 0.19C8.08-2.49 8.02-2.52 7.97-2.46c-0.05 0.06-0.1 0.28-0.08 0.36 -0.17 0.06-0.01 0.23-0.01 0.35C7.87-1.7 7.83-1.64 7.83-1.59c-0.01 0.12 0.02 0.27 0.07 0.37 0.1 0.2 0.27 0.41 0.44 0.54 0.19 0.15 0.37 0.57 0.61 0.63C9.11 0 9.32-0.15 9.48-0.18c0.18-0.04 0.4 0.01 0.57-0.05 0.22-0.08 0.13-0.34 0.29-0.45 0.1-0.07 0.29-0.01 0.41-0.05 0.2-0.07 0.34-0.26 0.38-0.46 0.02-0.08 0.01-0.14 0.04-0.22 0.04-0.1 0.11-0.16 0.09-0.29 -0.01-0.06-0.05-0.12-0.06-0.19 -0.02-0.11 0-0.22 0-0.34 0-0.2 0.02-0.38-0.08-0.55 -0.38-0.69-1.24-0.93-1.97-0.79C8.95-3.54 8.85-3.45 8.69-3.37c-0.17 0.09-0.14 0.17-0.32 0.22C8.29-3.12 8.16-3.02 8.16-2.92 8.16-2.8 8.16-2.87 8.17-2.75 8.15-2.74 8.15-2.76 8.14-2.78"/>
    <path fill="#FFFFFF" d="M0.5-2.78c0.02 0.07 0.01 0.13-0.03 0.19C0.42-2.49 0.36-2.52 0.3-2.46 0.25-2.4 0.21-2.18 0.23-2.1 0.06-2.04 0.22-1.87 0.21-1.75c0 0.05-0.04 0.11-0.04 0.16 -0.01 0.12 0.02 0.27 0.07 0.37C0.33-1.02 0.5-0.8 0.67-0.67c0.19 0.15 0.37 0.57 0.61 0.63C1.45 0 1.66-0.15 1.82-0.18 2-0.23 2.22-0.17 2.39-0.24c0.22-0.08 0.13-0.34 0.29-0.45 0.1-0.07 0.29-0.01 0.41-0.05 0.2-0.07 0.34-0.26 0.38-0.46C3.48-1.28 3.47-1.34 3.5-1.42c0.04-0.1 0.11-0.16 0.09-0.29 -0.01-0.06-0.05-0.12-0.06-0.19 -0.02-0.11 0-0.22 0-0.34 0-0.2 0.02-0.38-0.08-0.55 -0.38-0.69-1.24-0.93-1.97-0.79C1.29-3.54 1.19-3.45 1.03-3.37c-0.17 0.09-0.14 0.17-0.32 0.22C0.63-3.12 0.5-3.02 0.5-2.92 0.5-2.8 0.5-2.87 0.51-2.75 0.49-2.74 0.49-2.76 0.48-2.78"/>
  </pattern>
  <path fill="none" d="M25.03 17.05h-3.7V16.35h3.7V17.05zM25.03 14.44h-5.2v-0.7h5.21V14.44zM21.33 8.23h3.7v0.7h-3.7V8.23zM20.92 11.03h4.1v0.7h-4.1V11.03zM12.21 4.72c1.3 0.1 2.2 1.2 2.1 2.41 -0.1 1.2-1.1 2.11-2.3 2.11 0 0-0.1 0-0.2 0 -1.2-0.1-2.1-1.2-2-2.41C9.91 5.52 11.01 4.61 12.21 4.72z"/>
  <path fill="none" d="M11.91 8.53c0.9 0.1 1.6-0.6 1.7-1.4 0-0.9-0.6-1.6-1.4-1.7 -0.1 0-0.1 0-0.2 0 -0.7 0-1.4 0.6-1.5 1.4C10.41 7.72 11.11 8.43 11.91 8.53z"/>
  <path fill="none" d="M12.02 13.74c0.5 0 0.9-0.1 1.2-0.3 0.5-0.3 0.9-0.8 1.1-1.5l0.2-0.7 2.1 2.71 -0.5 0.2c-1.6 0.6-2.5 1.4-2.5 2.31 0 1.3 2.1 2.61 4 3.31 0.2 0 0.5-0.1 0.5-0.3 0.1-0.2 0-0.4-0.2-0.5 -1.1-0.4-3.5-1.6-3.5-2.51 0-0.4 0.4-1.1 2.9-1.81 0 0 0 0 0.1 0l0.4-0.2 0.1 0.4c0.3 1.61 1.6 4.52 5.51 5.62h0.1c0.2 0 0.4-0.1 0.4-0.3 0.1-0.2-0.1-0.5-0.3-0.5 -4.91-1.4-5.11-5.62-5.11-6.12l-0.1-0.7 -2.9-3.71 0.3-0.2c0.4-0.3 1.3-1.1 2.1-1.1 0.1 0 0.2 0.1 0.3 0.1 0.7 0.2 1 1.5 1 2.41 0.1 0.3 0.2 0.4 0.5 0.4 0.2 0 0.4-0.2 0.4-0.4 -0.2-1.81-0.7-2.91-1.6-3.21 -0.2-0.1-0.4-0.1-0.6-0.1 -1.2 0-2.6 1.2-3.2 1.81l-0.1 0.1 -0.9 1.5v0.1c-0.1 1.1-0.3 1.81-0.9 2.11 -0.2 0.2-0.5 0.2-0.8 0.2 -0.34 0-0.69-0.06-1.02-0.14 0.01 0.11 0.02 0.23 0.02 0.34 0 0.19-0.01 0.38-0.03 0.56 0.23 0.06 0.47 0.12 0.73 0.14C11.81 13.74 11.91 13.74 12.02 13.74z"/>
  <path fill="#6E2D91" d="M160.91 0H7.41C5.48 0 3.91 1.57 3.91 3.51v3.5c0.33-0.05 0.66-0.09 1-0.09V3.51C4.91 2.13 6.03 1.01 7.41 1h153.5c1.38 0 2.5 1.12 2.5 2.51l0 19.06c0 1.39-1.12 2.5-2.5 2.51L7.41 25.08c-1.38 0-2.5-1.12-2.5-2.51v-3.41c-0.34 0-0.67-0.04-1-0.09v3.5c0 1.94 1.57 3.51 3.5 3.51h153.5c1.94 0 3.5-1.57 3.5-3.51V3.51C164.41 1.57 162.84 0 160.91 0z"/>
  <rect x="19.82" y="13.74" fill="#6E2D91" width="5.21" height="0.7"/>
  <path fill="#6E2D91" d="M12.02 14.44c0.6 0 1.1-0.2 1.6-0.4 0.5-0.3 0.9-0.7 1.2-1.3l0.7 0.9c-1.7 0.7-2.6 1.61-2.6 2.71 0 2.21 3.11 3.51 4.51 4.01 0.1 0.1 0.2 0.1 0.4 0.1 0.4 0 0.9-0.3 1-0.8 0.2-0.5-0.1-1.2-0.7-1.4 -1.6-0.6-2.8-1.51-2.9-1.8 0-0.1 0.4-0.5 2.1-1.1 0.5 1.91 1.9 4.72 5.91 5.72 0.1 0.1 0.2 0.1 0.2 0.1h0.1c0.5 0 1-0.4 1.1-0.8 0.2-0.6-0.2-1.3-0.8-1.4 -4.5-1.2-4.61-5.21-4.61-5.42l-0.2-1 -2.5-3.31c0.6-0.4 1.1-0.7 1.4-0.7 0 0 0 0 0.1 0.1 0.1 0 0.4 0.4 0.5 1.81 0.1 0.6 0.6 1 1.2 1 0.7 0 1.1-0.6 1.1-1.2 -0.2-2.11-0.9-3.31-2.1-3.81 -0.2 0-0.5-0.1-0.8-0.1 -1.7 0-3.4 1.71-3.7 2.11l-1.2 1.81v0.3c-0.1 0.8-0.2 1.4-0.5 1.51 -0.1 0.1-0.3 0.1-0.5 0.1 -0.37 0-0.76-0.11-1.11-0.25 0.05 0.27 0.08 0.54 0.09 0.81 0.32 0.08 0.68 0.14 1.02 0.14 0.3 0 0.6 0 0.8-0.2 0.6-0.3 0.8-1 0.9-2.11v-0.1l0.9-1.5 0.1-0.1c0.6-0.6 2-1.81 3.21-1.81 0.2 0 0.4 0 0.6 0.1 0.9 0.3 1.4 1.4 1.6 3.21 0 0.2-0.2 0.4-0.4 0.4 -0.3 0-0.4-0.1-0.5-0.4 0-0.9-0.3-2.21-1-2.41 -0.1 0-0.2-0.1-0.3-0.1 -0.8 0-1.7 0.8-2.1 1.1l-0.3 0.2 2.9 3.71 0.1 0.7c0 0.5 0.2 4.72 5.11 6.12 0.2 0 0.4 0.3 0.3 0.5 0 0.2-0.2 0.3-0.4 0.3h-0.1c-3.9-1.1-5.21-4.01-5.51-5.62l-0.1-0.4 -0.4 0.2c-0.1 0-0.1 0-0.1 0 -2.5 0.7-2.9 1.4-2.9 1.81 0 0.9 2.4 2.11 3.5 2.51 0.2 0.1 0.3 0.3 0.2 0.5 0 0.2-0.3 0.3-0.5 0.3 -1.9-0.7-4-2.01-4-3.31 0-0.9 0.9-1.71 2.5-2.31l0.5-0.2 -2.1-2.71 -0.2 0.7c-0.2 0.7-0.6 1.2-1.1 1.51 -0.3 0.2-0.7 0.3-1.2 0.3 -0.1 0-0.2 0-0.3 0 -0.26-0.02-0.5-0.08-0.73-0.14 -0.02 0.24-0.06 0.48-0.1 0.71 0.24 0.06 0.49 0.11 0.74 0.14C11.81 14.44 11.91 14.44 12.02 14.44z"/>
  <rect x="21.33" y="16.35" fill="#6E2D91" width="3.7" height="0.7"/>
  <rect x="21.33" y="8.23" fill="#6E2D91" width="3.7" height="0.7"/>
  <rect x="20.92" y="11.03" fill="#6E2D91" width="4.1" height="0.7"/>
  <path fill="#6E2D91" d="M11.81 9.23c0.1 0 0.2 0 0.2 0 1.2 0 2.2-0.9 2.3-2.11 0.1-1.2-0.8-2.31-2.1-2.41 -1.2-0.1-2.3 0.8-2.4 2.11C9.71 8.02 10.61 9.13 11.81 9.23zM10.51 6.82c0.1-0.8 0.8-1.4 1.5-1.4 0.1 0 0.1 0 0.2 0 0.8 0.1 1.4 0.8 1.4 1.71 -0.1 0.8-0.8 1.51-1.7 1.4C11.11 8.43 10.41 7.72 10.51 6.82z"/>
  <path fill="#6E2D91" d="M4.91 8.13C2.2 8.13 0.01 10.33 0 13.04c0.01 2.71 2.2 4.91 4.91 4.91 2.71 0 4.9-2.2 4.91-4.91C9.81 10.33 7.62 8.13 4.91 8.13zM7.91 13.64H5.51v2.41H4.31v-2.41H1.8v-1.2h2.5V9.93h1.2v2.51H7.91V13.64z"/>
  <polygon fill="#FFFFFF" points="5.51 9.93 4.31 9.93 4.31 12.44 1.8 12.44 1.8 13.64 4.31 13.64 4.31 16.05 5.51 16.05 5.51 13.64 7.91 13.64 7.91 12.44 5.51 12.44 "/>
  <path fill="#6E2D91" d="M31.78 8.42h1.54l5.06 6.55V8.42h1.65v9.48h-1.39l-5.21-6.75v6.75h-1.65V8.42z"/>
  <path fill="#6E2D91" d="M42.46 8.42h7v1.5h-5.35v2.44h4.74v1.5h-4.74v2.53h5.42v1.51h-7.07V8.42z"/>
  <path fill="#6E2D91" d="M50.79 8.42h1.8l2.26 7.03 2.32-7.06h1.41l2.33 7.06 2.26-7.03h1.74l-3.3 9.55h-1.43l-2.33-6.81 -2.32 6.81h-1.43L50.79 8.42z"/>
  <path fill="#6E2D91" d="M75.06 18.06c-0.69 0-1.33-0.13-1.92-0.38 -0.59-0.25-1.09-0.6-1.52-1.03 -0.43-0.44-0.77-0.95-1.01-1.55 -0.24-0.6-0.37-1.23-0.37-1.91v-0.03c0-0.68 0.12-1.31 0.36-1.9 0.24-0.59 0.58-1.11 1.01-1.56 0.44-0.45 0.95-0.8 1.55-1.06 0.6-0.26 1.25-0.39 1.97-0.39 0.43 0 0.83 0.04 1.18 0.11 0.36 0.07 0.68 0.18 0.98 0.31 0.3 0.13 0.57 0.29 0.82 0.47 0.25 0.18 0.49 0.38 0.72 0.6l-1.07 1.23c-0.38-0.35-0.78-0.64-1.2-0.85 -0.42-0.22-0.91-0.32-1.45-0.32 -0.45 0-0.87 0.09-1.25 0.27 -0.38 0.18-0.71 0.41-0.99 0.72 -0.28 0.3-0.49 0.66-0.65 1.06 -0.15 0.41-0.23 0.84-0.23 1.3v0.03c0 0.46 0.08 0.9 0.23 1.31 0.15 0.41 0.37 0.77 0.65 1.08s0.61 0.55 0.99 0.73c0.38 0.17 0.8 0.26 1.25 0.26 0.58 0 1.07-0.11 1.49-0.33 0.41-0.22 0.82-0.52 1.23-0.9l1.07 1.08c-0.24 0.26-0.5 0.49-0.76 0.7 -0.26 0.21-0.55 0.38-0.86 0.53 -0.31 0.15-0.64 0.26-1.01 0.34C75.91 18.02 75.5 18.06 75.06 18.06z"/>
  <path fill="#6E2D91" d="M80.63 8.42h1.65v3.94h4.54v-3.94h1.65v9.48h-1.65v-4h-4.54v4h-1.65V8.42z"/>
  <path fill="#6E2D91" d="M94.26 8.35h1.54l4.16 9.55h-1.76l-0.96-2.29h-4.47l-0.97 2.29h-1.7L94.26 8.35zM96.64 14.13l-1.64-3.79 -1.62 3.79H96.64z"/>
  <path fill="#6E2D91" d="M101.59 8.42h1.65v7.98h4.97v1.51h-6.62V8.42z"/>
  <path fill="#6E2D91" d="M109.95 8.42h1.65v7.98h4.97v1.51h-6.62V8.42z"/>
  <path fill="#6E2D91" d="M118.32 8.42h7v1.5h-5.35v2.44h4.74v1.5h-4.74v2.53h5.42v1.51h-7.07V8.42z"/>
  <path fill="#6E2D91" d="M127.38 8.42h1.54l5.06 6.55V8.42h1.65v9.48h-1.39l-5.21-6.75v6.75h-1.65V8.42z"/>
  <path fill="#6E2D91" d="M142.54 18.06c-0.74 0-1.41-0.12-2.01-0.37 -0.6-0.25-1.12-0.59-1.55-1.03 -0.43-0.44-0.76-0.95-0.99-1.54 -0.23-0.59-0.35-1.24-0.35-1.93v-0.03c0-0.66 0.12-1.29 0.36-1.88 0.24-0.6 0.58-1.12 1.01-1.56s0.95-0.8 1.55-1.06c0.6-0.26 1.25-0.39 1.97-0.39 0.41 0 0.79 0.03 1.13 0.09 0.34 0.06 0.65 0.14 0.94 0.25 0.29 0.11 0.56 0.24 0.82 0.4 0.26 0.16 0.51 0.34 0.75 0.55l-1.05 1.26c-0.18-0.15-0.36-0.29-0.56-0.42 -0.19-0.13-0.39-0.23-0.59-0.32 -0.21-0.09-0.43-0.15-0.68-0.2 -0.25-0.05-0.52-0.07-0.82-0.07 -0.43 0-0.84 0.09-1.21 0.27s-0.7 0.42-0.97 0.73c-0.27 0.3-0.49 0.66-0.65 1.07 -0.16 0.41-0.24 0.84-0.24 1.29v0.03c0 0.49 0.08 0.94 0.23 1.36 0.15 0.42 0.37 0.78 0.65 1.07 0.28 0.3 0.62 0.53 1.01 0.71 0.39 0.17 0.83 0.26 1.31 0.26 0.45 0 0.87-0.06 1.26-0.2 0.39-0.13 0.73-0.3 1.02-0.52v-1.78h-2.42v-1.45h4.03v3.98c-0.23 0.2-0.49 0.39-0.78 0.57 -0.28 0.18-0.59 0.34-0.92 0.47 -0.33 0.14-0.68 0.24-1.06 0.32C143.35 18.02 142.96 18.06 142.54 18.06z"/>
  <path fill="#6E2D91" d="M148.66 8.42h7v1.5h-5.35v2.44h4.75v1.5h-4.74v2.53h5.42v1.51h-7.07V8.42z"/>
</svg>
